<?xml version="1.0" encoding="utf-8"?>
<!-- Generator: Adobe Illustrator 19.0.0, SVG Export Plug-In . SVG Version: 6.00 Build 0)  -->
<svg version="1.1" id="Capa_1" xmlns="http://www.w3.org/2000/svg" xmlns:xlink="http://www.w3.org/1999/xlink" x="0px" y="0px"
	 viewBox="-218.5 185.7 55 55" style="enable-background:new -218.5 185.7 55 55;" xml:space="preserve">
<style type="text/css">
	.st0{fill:#414042;}
</style>
<g>
	<path class="st0" d="M-191.4,185.7c-15.2,0.2-27.3,12.7-27.1,27.9c0.2,15.2,12.7,27.3,27.9,27.1c15.2-0.2,27.3-12.7,27.1-27.9
		C-163.7,197.7-176.2,185.5-191.4,185.7z M-191.5,232.7l-0.2,0c-2.6-0.1-4.5-2-4.4-4.6c0.1-2.6,2-4.4,4.5-4.4l0.2,0
		c2.7,0.1,4.5,2,4.5,4.7C-187,230.9-188.9,232.7-191.5,232.7z M-180.4,210.7c-0.6,0.9-2,2-3.7,3.3l-1.9,1.3c-1,0.8-1.7,1.6-1.9,2.3
		c-0.2,0.6-0.3,0.7-0.3,1.9l0,0.3h-7.2l0-0.6c0.1-2.5,0.2-4,1.2-5.2c1.6-1.9,5.2-4.2,5.4-4.3c0.5-0.4,1-0.8,1.3-1.3
		c0.8-1,1.1-1.9,1.1-2.7c0-1.1-0.3-2.2-1-3.1c-0.6-0.9-1.8-1.3-3.6-1.3c-1.7,0-2.9,0.5-3.6,1.7c-0.7,1.2-1.1,2.4-1.1,3.6v0.3h-7.4
		l0-0.3c0.2-4.6,1.8-7.8,4.8-9.8c1.9-1.2,4.3-1.8,7-1.8c3.6,0,6.6,0.9,9,2.6c2.4,1.7,3.7,4.4,3.7,7.8
		C-178.6,207.2-179.2,209-180.4,210.7z"/>
</g>
</svg>
