<?xml version="1.0" encoding="utf-8"?>
<!-- Generator: Adobe Illustrator 19.0.0, SVG Export Plug-In . SVG Version: 6.00 Build 0)  -->
<svg version="1.1" id="Layer_1" xmlns="http://www.w3.org/2000/svg" xmlns:xlink="http://www.w3.org/1999/xlink" x="0px" y="0px"
	 viewBox="-256 185.2 55 55" style="enable-background:new -256 185.2 55 55;" xml:space="preserve">
<style type="text/css">
	.st0{fill:#414042;}
</style>
<g>
	<g>
		<g>
			<path class="st0" d="M-209,188.1h-39c-4.4,0-8,3.6-8,8v23.6c0,4.4,3.6,8,8,8h27l11.1,11.1c0.2,0.2,0.5,0.3,0.8,0.3
				c0.1,0,0.3,0,0.4-0.1c0.4-0.2,0.7-0.6,0.7-1.1v-10.4c3.9-0.6,6.9-3.9,6.9-7.9v-23.6C-201,191.7-204.6,188.1-209,188.1z
				 M-203.3,219.7c0,3.2-2.6,5.7-5.7,5.7c-0.6,0-1.1,0.5-1.1,1.1v8.7l-9.5-9.5c-0.2-0.2-0.5-0.3-0.8-0.3H-248
				c-3.2,0-5.7-2.6-5.7-5.7v-23.6c0-3.2,2.6-5.7,5.7-5.7h39c3.2,0,5.7,2.6,5.7,5.7V219.7z"/>
		</g>
	</g>
	<path class="st0" d="M-236,209.4c0,1.3-1.1,2.4-2.4,2.4c-1.3,0-2.4-1.1-2.4-2.4c0-1.3,1.1-2.4,2.4-2.4
		C-237.1,207-236,208.1-236,209.4z"/>
	<path class="st0" d="M-226,209.4c0,1.3-1.1,2.4-2.4,2.4c-1.3,0-2.4-1.1-2.4-2.4c0-1.3,1.1-2.4,2.4-2.4
		C-227.1,207-226,208.1-226,209.4z"/>
	<path class="st0" d="M-216,209.4c0,1.3-1.1,2.4-2.4,2.4c-1.3,0-2.4-1.1-2.4-2.4c0-1.3,1.1-2.4,2.4-2.4
		C-217.1,207-216,208.1-216,209.4z"/>
</g>
</svg>
