<?xml version="1.0" encoding="utf-8"?>
<!-- Generator: Adobe Illustrator 19.0.0, SVG Export Plug-In . SVG Version: 6.00 Build 0)  -->
<svg version="1.1" id="Capa_1" xmlns="http://www.w3.org/2000/svg" xmlns:xlink="http://www.w3.org/1999/xlink" x="0px" y="0px"
	 viewBox="-283 185.2 55 55" style="enable-background:new -283 185.2 55 55;" xml:space="preserve">
<style type="text/css">
	.st0{fill:#414042;}
</style>
<g>
	<path class="st0" d="M-235.8,213.6l-20.1-13.9l-18.9,13.9v22.3l1.4-0.1c1.8,0,13.4,0,13.4,0l0-13.1l2,0h5.7l1.6,0l0,13.1
		c0,0,12.2,0,13.7,0h1.1C-235.8,235.9-235.8,213.6-235.8,213.6z"/>
	<polygon class="st0" points="-256.1,191.3 -270.2,202.5 -270.1,195.9 -276.4,195.9 -276.4,207.4 -280,210.3 -277.7,212.6 
		-256.1,196.2 -233.2,212.5 -230.7,210.1 	"/>
</g>
</svg>
