<?xml version="1.0" encoding="utf-8"?>
<!-- Generator: Adobe Illustrator 19.0.0, SVG Export Plug-In . SVG Version: 6.00 Build 0)  -->
<svg version="1.1" id="Capa_1" xmlns="http://www.w3.org/2000/svg" xmlns:xlink="http://www.w3.org/1999/xlink" x="0px" y="0px"
	 viewBox="-256 185.2 55 55" style="enable-background:new -256 185.2 55 55;" xml:space="preserve">
<style type="text/css">
	.st0{fill:#FFFFFF;}
</style>
<g>
	<path class="st0" d="M-209,212.7l-20.1-13.9l-18.9,13.9V235l1.4-0.1c1.8,0,13.4,0,13.4,0v-13.1h2h5.7h1.6v13.1c0,0,12.2,0,13.7,0
		h1.1C-209,235-209,212.7-209,212.7z"/>
	<polygon class="st0" points="-229.2,190.4 -243.4,201.6 -243.2,195 -249.5,195 -249.5,206.5 -253.1,209.4 -250.9,211.7 
		-229.2,195.3 -206.4,211.6 -203.9,209.2 	"/>
</g>
</svg>
