<?xml version="1.0" encoding="utf-8"?>
<!-- Generator: Adobe Illustrator 19.0.0, SVG Export Plug-In . SVG Version: 6.00 Build 0)  -->
<svg version="1.1" id="Layer_1" xmlns="http://www.w3.org/2000/svg" xmlns:xlink="http://www.w3.org/1999/xlink" x="0px" y="0px"
	 viewBox="-256 185.2 55 55" style="enable-background:new -256 185.2 55 55;" xml:space="preserve">
<style type="text/css">
	.st0{fill:#414042;}
</style>
<g>
	<g>
		<path class="st0" d="M-211.5,223.1c-0.2,0-0.4-0.1-0.6-0.2l-10.2-9.5c-0.4-0.3-0.4-0.9,0-1.2c0.3-0.4,0.9-0.4,1.2,0l10.2,9.5
			c0.4,0.3,0.4,0.9,0,1.2C-211.1,223.1-211.3,223.1-211.5,223.1z"/>
		<path class="st0" d="M-245.5,223.1c-0.2,0-0.5-0.1-0.6-0.3c-0.3-0.4-0.3-0.9,0-1.2l10.2-9.5c0.4-0.3,0.9-0.3,1.2,0
			c0.3,0.4,0.3,0.9,0,1.2l-10.2,9.5C-245,223.1-245.2,223.1-245.5,223.1z"/>
	</g>
	<path class="st0" d="M-205.5,232h-45.9c-2.4,0-4.4-2-4.4-4.4v-30.1c0-2.4,2-4.4,4.4-4.4h45.9c2.4,0,4.4,2,4.4,4.4v30.1
		C-201.1,230-203.1,232-205.5,232z M-251.5,194.8c-1.5,0-2.6,1.2-2.6,2.6v30.1c0,1.5,1.2,2.6,2.6,2.6h45.9c1.5,0,2.6-1.2,2.6-2.6
		v-30.1c0-1.5-1.2-2.6-2.6-2.6H-251.5z"/>
	<path class="st0" d="M-228.5,217c-1.2,0-2.3-0.4-3.2-1.2l-22.7-19.8c-0.4-0.3-0.4-0.9-0.1-1.2c0.3-0.4,0.9-0.4,1.2-0.1l22.7,19.8
		c1.1,1,3,1,4.2,0l22.7-19.8c0.4-0.3,0.9-0.3,1.2,0.1c0.3,0.4,0.3,0.9-0.1,1.2l-22.7,19.8C-226.2,216.6-227.3,217-228.5,217z"/>
</g>
</svg>
