<?xml version="1.0" encoding="utf-8"?>
<!-- Generator: Adobe Illustrator 19.0.0, SVG Export Plug-In . SVG Version: 6.00 Build 0)  -->
<svg version="1.1" id="Layer_1" xmlns="http://www.w3.org/2000/svg" xmlns:xlink="http://www.w3.org/1999/xlink" x="0px" y="0px"
	 viewBox="-256 185.2 55 55" style="enable-background:new -256 185.2 55 55;" xml:space="preserve">
<style type="text/css">
	.st0{fill:#FFFFFF;}
</style>
<g>
	<g>
		<g>
			<path class="st0" d="M-228.5,187.2c14.1,0,25.5,11.4,25.5,25.5s-11.4,25.5-25.5,25.5s-25.5-11.4-25.5-25.5
				C-254,198.6-242.6,187.2-228.5,187.2 M-228.5,185.2c-15.2,0-27.5,12.3-27.5,27.5s12.3,27.5,27.5,27.5s27.5-12.3,27.5-27.5
				S-213.3,185.2-228.5,185.2L-228.5,185.2z"/>
		</g>
	</g>
</g>
<path class="st0" d="M-213.3,214.9h-13v12.9c0,1.2-1,2.2-2.2,2.2s-2.2-1-2.2-2.2v-12.9h-12.9c-1.2,0-2.2-1-2.2-2.2s1-2.2,2.2-2.2
	h12.9v-12.9c0-1.2,1-2.2,2.2-2.2s2.2,1,2.2,2.2v12.9h12.9c1.2,0,2.2,1,2.2,2.2S-212.1,214.9-213.3,214.9z"/>
</svg>
