<?xml version="1.0" encoding="utf-8"?>
<!-- Generator: Adobe Illustrator 21.0.0, SVG Export Plug-In . SVG Version: 6.00 Build 0)  -->
<svg version="1.1" id="Layer_1" xmlns="http://www.w3.org/2000/svg" xmlns:xlink="http://www.w3.org/1999/xlink" x="0px" y="0px"
	 viewBox="0 0 796 300" style="enable-background:new 0 0 796 300;" xml:space="preserve">
<style type="text/css">
	.st0{fill:#FFFFFF;}
</style>
<g>
	<path class="st0" d="M256.3,110.6c3.2,0,5.9-0.5,8-1.6c2.1-1.1,3.1-2.9,3.1-5.4c0-1.2-0.2-2.2-0.6-3.1c-0.4-0.9-1-1.7-1.9-2.3
		c-0.8-0.7-2-1.3-3.4-2c-1.4-0.6-3.1-1.4-5.2-2.2c-1.7-0.7-3.2-1.4-4.7-2.1c-1.5-0.7-2.8-1.6-4-2.5c-1.2-0.9-2.1-2.1-2.8-3.4
		c-0.7-1.3-1-2.9-1-4.8c0-3.6,1.3-6.6,4.1-8.8c2.7-2.2,6.5-3.4,11.2-3.4c3.1,0,5.6,0.3,7.5,0.8c2,0.5,3.4,1,4.2,1.4l-1.3,5
		c-0.7-0.3-1.9-0.8-3.5-1.4c-1.6-0.6-4-0.9-7.2-0.9c-1.3,0-2.5,0.1-3.6,0.4c-1.1,0.3-2.1,0.7-3,1.2c-0.9,0.5-1.6,1.2-2.1,2.1
		c-0.5,0.8-0.8,1.9-0.8,3.1c0,1.2,0.2,2.2,0.7,3.1c0.5,0.9,1.1,1.6,2,2.3c0.9,0.7,2,1.3,3.3,1.8c1.3,0.6,2.8,1.2,4.4,1.9
		c1.7,0.7,3.4,1.4,5,2.1c1.6,0.7,3,1.6,4.2,2.6c1.2,1,2.2,2.2,2.9,3.6c0.8,1.4,1.1,3.2,1.1,5.3c0,4-1.5,7.1-4.5,9.1
		c-3,2.1-7.2,3.1-12.4,3.1c-3.9,0-6.9-0.3-9-1c-2.1-0.6-3.4-1.2-4.1-1.5l1.5-5.1c0.1,0.1,0.5,0.3,1.1,0.5c0.6,0.3,1.3,0.5,2.3,0.8
		c1,0.3,2.1,0.6,3.5,0.8C252.9,110.5,254.5,110.6,256.3,110.6"/>
	<path class="st0" d="M308.7,88.7c-0.1-4.7-1.2-8.3-3.3-10.8c-2.1-2.6-5-3.9-8.8-3.9c-2,0-3.8,0.4-5.4,1.2c-1.6,0.8-3,1.9-4.1,3.2
		c-1.2,1.3-2.1,2.9-2.8,4.7c-0.7,1.8-1.1,3.6-1.2,5.6H308.7z M277.1,92.3c0-3.9,0.6-7.3,1.7-10.2c1.1-2.9,2.6-5.3,4.4-7.3
		c1.8-2,3.9-3.4,6.2-4.3c2.3-1,4.7-1.4,7.2-1.4c5.4,0,9.8,1.8,13.1,5.4c3.2,3.6,4.9,9,4.9,16.4c0,0.5,0,0.9-0.1,1.4
		c0,0.5-0.1,0.9-0.1,1.3H283c0.2,5.4,1.5,9.6,4.1,12.6c2.5,2.9,6.5,4.4,12.1,4.4c3,0,5.5-0.3,7.2-0.9c1.8-0.6,3.1-1.1,3.9-1.5
		l1.1,4.8c-0.8,0.5-2.3,1-4.5,1.6c-2.2,0.6-4.8,0.9-7.8,0.9c-3.9,0-7.2-0.6-10-1.7c-2.7-1.2-5-2.8-6.8-4.8c-1.8-2.1-3.1-4.5-3.9-7.3
		C277.5,98.8,277.1,95.7,277.1,92.3"/>
	<path class="st0" d="M351.6,75.5c-1-0.3-2.2-0.5-3.8-0.8c-1.6-0.3-3.8-0.4-6.6-0.4c-2.4,0-4.6,0.4-6.4,1.3c-1.9,0.8-3.5,2-4.8,3.5
		c-1.3,1.5-2.3,3.3-3,5.4c-0.7,2.1-1,4.4-1,6.9c0,2.9,0.4,5.4,1.2,7.5c0.8,2.1,1.9,3.8,3.1,5.1c1.3,1.3,2.8,2.3,4.5,2.9
		c1.7,0.6,3.3,0.9,5.1,0.9c2.6,0,4.9-0.4,6.9-1.1c2.1-0.8,3.7-1.6,4.9-2.6V75.5z M351.7,109.4c-0.3,0.3-0.9,0.6-1.5,1
		c-0.7,0.4-1.6,0.8-2.5,1.2c-1,0.4-2.2,0.7-3.5,1c-1.3,0.3-2.7,0.4-4.4,0.4c-2.6,0-5.1-0.4-7.5-1.2c-2.4-0.8-4.5-2.1-6.3-3.8
		c-1.8-1.7-3.3-3.9-4.3-6.7c-1.1-2.7-1.6-6-1.6-10c0-3.2,0.5-6.1,1.5-8.8c1-2.7,2.4-5.1,4.2-7c1.8-2,4-3.6,6.6-4.7
		c2.6-1.1,5.6-1.7,8.8-1.7c4.1,0,7.4,0.3,10,0.8c2.5,0.5,4.6,1.1,6.2,1.6v40.7c0,6.7-1.7,11.4-5.2,14.3c-3.4,2.8-8.6,4.3-15.6,4.3
		c-2.9,0-5.5-0.2-7.8-0.6c-2.3-0.4-4.3-0.9-6-1.5l1.1-5.1c1.4,0.6,3.2,1.2,5.6,1.6c2.4,0.5,4.8,0.7,7.2,0.7c5.3,0,9.1-1,11.5-3.1
		c2.4-2,3.6-5.5,3.6-10.5V109.4z"/>
	<path class="st0" d="M402,113.1c-1.7,0.5-3.9,1-6.7,1.6c-2.8,0.6-6.3,0.9-10.4,0.9c-3.3,0-6.1-0.5-8.4-1.4c-2.2-1-4-2.4-5.4-4.1
		c-1.4-1.8-2.4-4-3-6.5c-0.6-2.5-0.9-5.3-0.9-8.4V70h5.6v23.2c0,3.2,0.2,5.8,0.7,8c0.5,2.2,1.2,3.9,2.2,5.3c1.1,1.4,2.4,2.3,4,2.9
		c1.6,0.6,3.6,0.9,6,0.9c2.6,0,4.9-0.1,6.9-0.4c1.9-0.3,3.2-0.5,3.7-0.8V70h5.6V113.1z"/>
	<path class="st0" d="M427.7,69.2c1.8,0,3.6,0.2,5.2,0.5c1.6,0.3,2.8,0.6,3.4,0.8l-1.1,4.8c-0.5-0.2-1.4-0.5-2.8-0.7
		c-1.4-0.3-3.3-0.4-5.6-0.4c-2.4,0-4.4,0.2-5.8,0.5c-1.5,0.3-2.4,0.7-2.9,0.9v39.1h-5.6V72.1c1.4-0.6,3.4-1.3,6-1.9
		C421,69.5,424.1,69.2,427.7,69.2"/>
	<path class="st0" d="M472.5,92.4c0-5.6-1.3-10-3.9-13.3c-2.6-3.3-6.1-5-10.5-5c-4.4,0-7.9,1.7-10.5,5c-2.6,3.3-3.9,7.8-3.9,13.3
		c0,5.6,1.3,10,3.9,13.3c2.6,3.2,6.1,4.9,10.5,4.9c4.4,0,7.9-1.7,10.5-4.9C471.2,102.4,472.5,97.9,472.5,92.4 M478.4,92.4
		c0,3.5-0.5,6.7-1.5,9.5c-1,2.9-2.4,5.3-4.2,7.4c-1.8,2-3.9,3.6-6.4,4.7c-2.5,1.1-5.2,1.7-8.2,1.7c-3,0-5.7-0.6-8.2-1.7
		c-2.5-1.1-4.6-2.7-6.4-4.7c-1.8-2-3.2-4.5-4.2-7.4c-1-2.9-1.5-6-1.5-9.5c0-3.5,0.5-6.7,1.5-9.6c1-2.9,2.4-5.3,4.2-7.4
		c1.8-2,3.9-3.6,6.4-4.7c2.5-1.1,5.2-1.7,8.2-1.7c3,0,5.7,0.6,8.2,1.7c2.4,1.1,4.6,2.7,6.4,4.7c1.8,2,3.2,4.5,4.2,7.4
		C477.9,85.7,478.4,88.9,478.4,92.4"/>
	<path class="st0" d="M495.4,110.6c3.2,0,5.9-0.5,8-1.6c2.1-1.1,3.1-2.9,3.1-5.4c0-1.2-0.2-2.2-0.5-3.1c-0.4-0.9-1-1.7-1.9-2.3
		c-0.9-0.7-2-1.3-3.4-2c-1.4-0.6-3.1-1.4-5.2-2.2c-1.7-0.7-3.3-1.4-4.7-2.1c-1.5-0.7-2.8-1.6-4-2.5c-1.1-0.9-2.1-2.1-2.8-3.4
		c-0.7-1.3-1-2.9-1-4.8c0-3.6,1.4-6.6,4.1-8.8c2.7-2.2,6.5-3.4,11.2-3.4c3,0,5.6,0.3,7.5,0.8c2,0.5,3.4,1,4.2,1.4l-1.3,5
		c-0.7-0.3-1.9-0.8-3.5-1.4c-1.6-0.6-4-0.9-7.2-0.9c-1.3,0-2.5,0.1-3.6,0.4c-1.1,0.3-2.1,0.7-3,1.2c-0.9,0.5-1.6,1.2-2.1,2.1
		c-0.5,0.8-0.8,1.9-0.8,3.1c0,1.2,0.2,2.2,0.7,3.1c0.4,0.9,1.1,1.6,2,2.3c0.9,0.7,2,1.3,3.3,1.8c1.3,0.6,2.8,1.2,4.5,1.9
		c1.7,0.7,3.3,1.4,4.9,2.1c1.6,0.7,3,1.6,4.2,2.6c1.2,1,2.2,2.2,2.9,3.6c0.7,1.4,1.1,3.2,1.1,5.3c0,4-1.5,7.1-4.5,9.1
		c-3,2.1-7.1,3.1-12.4,3.1c-3.9,0-6.9-0.3-9-1c-2.1-0.6-3.4-1.2-4.1-1.5l1.5-5.1c0.2,0.1,0.6,0.3,1.1,0.5c0.6,0.3,1.4,0.5,2.3,0.8
		c1,0.3,2.1,0.6,3.5,0.8C492.1,110.5,493.6,110.6,495.4,110.6"/>
	<path class="st0" d="M135.6,203c-33.8,0-70.8-24.7-70.8-55.1c0-30.5,37-55.2,70.8-55.2c33.8,0,70.9,24.7,70.9,55.2
		C206.5,178.3,169.4,203,135.6,203 M135.6,69.8c-43.1,0-78.1,35-78.1,78.1c0,43.1,34.9,78.1,78.1,78.1c43.1,0,78.1-35,78.1-78.1
		C213.7,104.8,178.7,69.8,135.6,69.8"/>
	<path class="st0" d="M96.7,143.9c-0.8-0.5-0.8-1.1,0.1-1.4l66.3-24c0.9-0.3,1.3,0.1,1,1l-24,66.3c-0.3,0.9-1,0.9-1.4,0.1L124.2,160
		c-0.5-0.8-1.5-1.9-2.4-2.3L96.7,143.9z"/>
	<path class="st0" d="M735.4,230.4c-6.3-0.1-11.4-0.8-15.3-2c-3.9-1.3-7-3.1-9.3-5.3c-2.3-2.3-3.8-5-4.6-8.3
		c-0.8-3.2-1.3-6.9-1.3-11v-88.4l21.6,3.5v80.5c0,1.9,0.2,3.7,0.5,5.2c0.3,1.6,0.8,2.8,1.7,3.9c0.8,1.1,2,2,3.6,2.6
		c1.5,0.6,3.6,1.1,6.2,1.3L735.4,230.4z"/>
	<path class="st0" d="M286,183.9c0-7-0.9-11.9-2.7-14.8c-1.8-2.9-4.9-4.3-9.2-4.3c-1.4,0-2.7,0.1-4.2,0.2c-1.5,0.1-2.9,0.3-4.2,0.5
		v60h-21.6v-74.7c1.8-0.5,4-1,6.5-1.5c2.5-0.5,5.1-1,7.8-1.5c2.8-0.4,5.6-0.8,8.5-1c2.9-0.3,5.8-0.4,8.6-0.4c5.5,0,10,0.7,13.4,2.1
		c3.4,1.4,6.3,3.1,8.5,5c3.1-2.2,6.6-4,10.6-5.2c4-1.3,7.7-1.9,11.1-1.9c6.1,0,11.1,0.8,15,2.5c3.9,1.7,7,4.1,9.4,7.2
		c2.3,3.1,3.9,6.8,4.8,11c0.9,4.3,1.3,9,1.3,14.3v44.1H328v-41.5c0-7-0.9-11.9-2.7-14.8c-1.8-2.9-4.9-4.3-9.2-4.3
		c-1.1,0-2.8,0.3-4.9,0.9c-2.1,0.6-3.8,1.3-5.1,2.2c0.7,2.2,1.1,4.6,1.3,7c0.2,2.5,0.3,5.1,0.3,7.9v42.7H286V183.9z"/>
	<path class="st0" d="M426.2,225.4h-32.5c-6.5,0-11.9-0.8-16.2-2.6c-4.3-1.7-7.7-4.2-10.2-7.3c-2.5-3.1-4.3-6.9-5.4-11.3
		c-1.1-4.3-1.6-9.7-1.6-14.9v-40.1h21.6v37.4c0,7,0.9,12,2.7,15.1c1.8,3.1,5.3,4.6,10.3,4.6h9.6v-57.2h21.6V225.4z"/>
	<path class="st0" d="M437,149.2h32.5c6.5,0,11.9,0.9,16.2,2.6c4.3,1.8,7.7,4.2,10.2,7.3c2.5,3.2,4.3,6.9,5.4,11.3
		c1.1,4.4,1.6,11,1.6,16.3v38.7h-21.6v-36.1c0-7-0.9-13.3-2.8-16.4c-1.8-3.1-5.3-4.6-10.3-4.6h-9.6v57.2H437V149.2z"/>
	<path class="st0" d="M617.7,225.4h-22.1v-75.5h22.1V225.4z M620.3,128.9c0,4.2-1.4,7.6-4.1,10c-2.7,2.4-6,3.6-9.7,3.6
		c-3.7,0-6.9-1.2-9.7-3.6c-2.7-2.4-4.1-5.8-4.1-10c0-4.2,1.4-7.6,4.1-10c2.8-2.4,6-3.7,9.7-3.7c3.7,0,6.9,1.2,9.7,3.7
		C618.9,121.4,620.3,124.7,620.3,128.9"/>
	<path class="st0" d="M674.5,208.5h-16.7c-4.5,0-8-3.2-8-7.1c0-3.9,3.6-7,8-7h16.7V208.5z M663.1,149.6h-29.2l4.4,18.9h24.8
		c5.9-0.1,11.6,2.5,11.6,10.3h0h-21.1h0c-14.9,0-27,10.4-27,23.3c0,12.9,12.1,23.3,27,23.3h40.1v-46.8
		C693.7,158.2,678.5,149.3,663.1,149.6"/>
	<path class="st0" d="M561.5,207.3h-12.1c-9.8,0-17.7-8.5-17.7-19c0-10.5,7.9-19,17.7-19h12.1V207.3z M561.5,118.8v31.1h-14.2
		c-20.7,0-37.4,17-37.4,37.8c0,20.9,16.8,37.8,37.4,37.8h14.4h22.8v-75.8v-33.4L561.5,118.8z"/>
</g>
</svg>
