<?xml version="1.0" encoding="utf-8"?>
<!-- Generator: Adobe Illustrator 19.0.0, SVG Export Plug-In . SVG Version: 6.00 Build 0)  -->
<svg version="1.1" id="Capa_1" xmlns="http://www.w3.org/2000/svg" xmlns:xlink="http://www.w3.org/1999/xlink" x="0px" y="0px"
	 viewBox="-284.7 185.2 104.3 55" style="enable-background:new -284.7 185.2 104.3 55;" xml:space="preserve">
<style type="text/css">
	.st0{fill:#FFFFFF;}
</style>
<g>
	<g>
		<path class="st0" d="M-270.3,219.3c-0.5,0.5-1.2,0.7-2.6,0.7h-4.5c-1.4,0-2.1-0.2-2.6-0.7c-0.8-0.8-1.4-2.1-1.4-6.6
			c0-4.5,0.6-5.8,1.4-6.6c0.5-0.5,1.2-0.7,2.6-0.7h4.5c1.5,0,2.1,0.2,2.6,0.7c0.8,0.7,1.1,1.8,1.2,4.6h-3.3
			c-0.1-1.8-0.3-2.2-0.4-2.4c-0.1-0.1-0.3-0.2-1-0.2h-2.7c-0.7,0-0.9,0.1-1,0.2c-0.2,0.2-0.5,0.7-0.5,4.4c0,3.7,0.3,4.2,0.5,4.4
			c0.1,0.1,0.3,0.2,1,0.2h2.7c0.7,0,0.9-0.1,1-0.2c0.2-0.2,0.4-0.5,0.4-2.5h3.3C-269.2,217.5-269.5,218.6-270.3,219.3"/>
		<path class="st0" d="M-266.3,220v-11.5h3.2v1.8c1.2-1.2,1.8-1.8,2.7-1.8h1.2v3.2h-1.5c-0.9,0-1.5,0.1-2.5,0.5v7.9H-266.3z"/>
		<path class="st0" d="M-250.5,217.1v-1.9h-2.1c-1.2,0-1.5,0.1-1.7,0.3c-0.2,0.2-0.3,0.5-0.3,1c0,0.6,0,0.9,0.2,1.1
			c0.2,0.2,0.4,0.2,0.8,0.2h0.9C-251.9,217.8-251.5,217.7-250.5,217.1 M-256.5,209.2c0.5-0.5,1-0.6,2-0.6h4.2c1.2,0,1.9,0.2,2.3,0.6
			c0.5,0.5,0.7,1.1,0.7,3.1v7.8h-3.2v-1.3c-1.4,1.1-1.9,1.3-2.9,1.3h-1.6c-1,0-1.6-0.1-2-0.6c-0.4-0.4-0.7-1.1-0.7-2.6
			c0-1.4,0.2-2.3,0.7-2.8c0.5-0.5,1.2-0.8,3.3-0.8c1.1,0,2.3,0.1,3.2,0.3v-1c0-1.1-0.1-1.4-0.2-1.5c-0.1-0.1-0.4-0.2-0.8-0.2h-1.6
			c-0.4,0-0.7,0-0.8,0.2c-0.2,0.2-0.2,0.4-0.2,1.1h-3C-257.1,210.3-256.9,209.6-256.5,209.2"/>
		<path class="st0" d="M-242.3,208.5l1.4,8h0.2l1.6-7.2c0.1-0.6,0.4-0.8,1.1-0.8h1.5c0.6,0,0.9,0.1,1.1,0.8l1.7,7.2h0.2l1.3-8h3
			l-2.4,10.7c-0.2,0.6-0.4,0.8-1.1,0.8h-2.1c-0.6,0-0.9-0.2-1.1-0.8l-1.4-6.2h-0.2l-1.4,6.2c-0.1,0.6-0.5,0.8-1.1,0.8h-2.1
			c-0.6,0-0.9-0.1-1.1-0.8l-2.4-10.7H-242.3z"/>
		<path class="st0" d="M-226.3,220v-9h-1.7v-2.5h1.7V208c0-1.4,0.2-2.2,0.7-2.7c0.5-0.5,1-0.7,2.3-0.7h2.4v2.4h-1.4
			c-0.4,0-0.5,0-0.7,0.1c-0.1,0.1-0.1,0.4-0.1,0.9v0.5h2.4v2.5h-2.3v9H-226.3z"/>
		<path class="st0" d="M-215.9,217.3c0.1,0.2,0.3,0.2,0.8,0.2h2c0.5,0,0.7-0.1,0.8-0.2c0.2-0.2,0.3-0.5,0.3-3c0-2.5-0.1-2.8-0.3-3
			c-0.1-0.1-0.3-0.2-0.8-0.2h-2c-0.5,0-0.7,0-0.8,0.2c-0.2,0.2-0.3,0.6-0.3,3C-216.2,216.7-216.1,217.1-215.9,217.3 M-218.3,219.3
			c-0.8-0.8-1-1.8-1-5c0-3.3,0.3-4.3,1-5.1c0.5-0.5,1.1-0.7,2.3-0.7h3.9c1.2,0,1.8,0.2,2.3,0.7c0.8,0.8,1,1.8,1,5.1
			c0,3.3-0.3,4.3-1,5c-0.5,0.5-1.1,0.7-2.3,0.7h-3.9C-217.2,220-217.8,219.8-218.3,219.3"/>
		<path class="st0" d="M-206.4,220v-11.5h3.2v1.8c1.2-1.2,1.8-1.8,2.7-1.8h1.2v3.2h-1.5c-0.9,0-1.5,0.1-2.5,0.5v7.9H-206.4z"/>
		<path class="st0" d="M-190.4,217v-5.5c-0.7-0.3-1.1-0.5-1.7-0.5h-1.1c-0.6,0-0.9,0.1-1,0.3c-0.3,0.3-0.4,0.8-0.4,2.9
			c0,2.2,0.1,2.7,0.4,2.9c0.2,0.2,0.5,0.3,1,0.3h1C-191.7,217.5-191.2,217.3-190.4,217 M-190.4,220v-1.5c-1.4,1.3-1.9,1.5-2.9,1.5
			h-1.2c-1.2,0-1.9-0.2-2.4-0.7c-0.7-0.7-1-1.7-1-5.1c0-3.4,0.3-4.3,1-5.1c0.5-0.5,1.2-0.7,2.3-0.7h1.3c1,0,1.5,0.2,2.8,1.3v-5.2
			h3.2V220H-190.4z"/>
		<path class="st0" d="M-184.7,205.3h0.2c0.3,0,0.5-0.1,0.5-0.3c0-0.2-0.1-0.3-0.5-0.3c-0.1,0-0.2,0-0.2,0V205.3z M-184.7,206.4
			h-0.3v-1.9c0.2,0,0.3,0,0.5,0c0.3,0,0.5,0.1,0.6,0.1c0.1,0.1,0.2,0.2,0.2,0.4c0,0.3-0.2,0.4-0.4,0.5v0c0.2,0,0.3,0.2,0.3,0.5
			c0,0.3,0.1,0.4,0.1,0.5h-0.3c0-0.1-0.1-0.2-0.1-0.5c0-0.2-0.2-0.3-0.4-0.3h-0.2V206.4z M-184.4,203.9c-0.8,0-1.4,0.7-1.4,1.5
			c0,0.8,0.6,1.5,1.4,1.5c0.8,0,1.4-0.6,1.4-1.5C-183,204.6-183.6,203.9-184.4,203.9L-184.4,203.9z M-184.4,203.7
			c0.9,0,1.7,0.8,1.7,1.7c0,1-0.8,1.7-1.7,1.7c-0.9,0-1.7-0.8-1.7-1.7C-186.1,204.4-185.3,203.7-184.4,203.7L-184.4,203.7z"/>
		<path class="st0" d="M-227.6,196.6c0,2.5-2.2,4.7-5.9,6.3l0.8-0.5l0.1-0.2l0.1-0.2l0.1-0.4l0-0.2l0-0.2l-0.1-0.2l-0.1-0.2l0-0.1
			l0,0l0-0.1l0,0l0,0l0-0.1l0-0.1l0,0l0,0l-0.1-0.1l-0.1,0l0-0.1l-0.1,0l0,0c1-1.2,1.5-2.4,1.5-3.8c0-1.7-0.8-3.3-2.3-4.6l0-0.1
			l0-0.1l0.1-0.1l0.1-0.2l0.1-0.1l0.1-0.1l0.1-0.1l0.1-0.1l0.1-0.1l0.1-0.2l0.1-0.1l0-0.1l-0.1-0.1l0-0.1h-0.1l-0.1,0l-0.1,0.1
			l-0.1,0l-0.1,0l-0.1,0l-0.1,0l-0.1,0.1l-0.1,0l-0.1,0l-0.1,0l-0.1-0.1l-0.1,0l-0.1-0.1l-0.1,0l-0.1-0.1l-0.1,0l-0.1-0.1l-0.1,0
			l-0.1,0.1l0-0.1l-0.1,0l-0.1,0l-0.1,0l-0.1,0l-0.1,0l0,0.1c-2.1-1.2-4.7-2-7.7-2.4C-234.6,188.6-227.6,192.2-227.6,196.6
			 M-261.9,191.6L-261.9,191.6L-261.9,191.6L-261.9,191.6z M-267.5,196.6c0-4.3,7-8,16.3-8.7c-2.9,0.4-5.4,1.2-7.5,2.3h-0.1l0,0
			c0,0-0.1,0-0.1,0.1l0,0l0-0.1l0,0v-0.1h0l0,0l0,0l0,0l-0.1,0.1l0,0l0,0l0,0l-0.1-0.1l0-0.1l-0.1-0.1l0,0l0.1,0l-0.1,0.1l0-0.1
			l-0.1,0.1l-0.1,0.1v-0.1l-0.2,0.1l0.1-0.1l0.1,0l0.1-0.1l0,0l0,0l-0.4,0.2l-0.1,0.1l0,0.1l0,0l0-0.1l-0.1,0l0,0l0,0l-0.1-0.1h-0.1
			l-0.2-0.1l-0.1,0l0,0l-0.2-0.1l-0.2,0l-0.6,0.3l-0.3,0l0.2,0.3l-0.1-0.1l0,0l0,0.1l0,0l-0.1,0l0.1-0.1l-0.1,0l-0.1,0.1l-0.1,0l0,0
			l0,0l0,0l-0.1,0l0,0l0.1,0l0,0l0,0.1l0,0l0,0l0,0l-0.1,0.1l0,0l0,0l0,0l0,0l-0.1,0l0,0.1l0.1,0l-0.1,0l0,0l0,0l0,0.1l-0.1,0.1
			l-0.2,0l0,0.1h0l-0.1,0l0.2,0.1l0,0l0,0.1l0.1,0l0,0l0,0l0.1,0l0,0l0,0l0,0l0,0l0.1,0l-0.1,0l-0.1,0l0,0l0,0l0,0l0,0l0,0.1l-0.2,0
			l0,0l0,0v0l0,0h-0.1l-0.1,0.1l0,0l-0.1,0l-0.2,0.1l0.1,0.1l0.1,0l-0.1,0l0.1,0.1l0.1,0l0.1,0l0,0l0,0l0,0h0l0,0.1l0.1-0.1l0.1,0
			l0,0h0l0.1,0.1l0,0.1l-0.1,0l-0.1,0.1l-0.1,0l-0.2,0.1l0.2,0l-0.4,0.1l0.1,0.1l0.4-0.1l0.3,0l0.1-0.1l0.1,0.1
			c-1.3,1.3-2,2.8-2,4.3c0,3.2,3,6,7.5,7.6l0,0l0,0l0,0l0,0l0,0l0,0l0,0.1l0,0.1l0,0.1l0.1,0l0,0.1l0,0
			C-262.8,203.2-267.5,200.1-267.5,196.6 M-236.4,190.4L-236.4,190.4l-0.2-0.1l-0.1,0l-0.1,0l-0.1,0l-0.1,0l-0.1,0l0,0l-0.1,0
			l-0.1,0l-0.1,0l-0.1,0l-0.1,0.1l-0.1-0.1l-0.1,0.1l-0.1,0l-0.1,0l-0.1,0l-0.2,0l-0.1-0.2l-0.2,0l-0.1-0.2l-0.1,0l0,0l-0.1,0
			l-0.1,0.1l-0.2,0l-0.1,0.1l-0.1,0l0,0c-1.1-0.8-2.4-1.5-3.9-1.9C-240.8,188.5-238.3,189.3-236.4,190.4L-236.4,190.4z
			 M-255.3,204.6L-255.3,204.6L-255.3,204.6l0.1-0.1c1.3,0.4,2.6,0.7,4,0.9c-1.6-0.1-3.1-0.3-4.6-0.6L-255.3,204.6L-255.3,204.6z
			 M-254.8,189.5L-254.8,189.5l0-0.1l0,0l-0.1,0l0,0l0-0.1l-0.2,0l0,0l0,0v0l-0.1,0l0,0.1l-0.1,0l0,0l0,0l0.1,0l-0.1,0l0.1,0.1
			l-0.1,0l0,0.1l0.1,0l-0.1,0.1l0.1,0.1l0.1,0l0,0.1c0,0,0,0,0,0l-0.1-0.1l0,0l0-0.1l0-0.1l0-0.1l0.1-0.1l-0.2,0l-0.1,0.2l0,0.1l0,0
			h0l0,0.1l0,0h0l0,0l0,0l0,0.1l0.3,0.1l-0.2,0l0,0l0,0l0.1,0.1c-0.1,0.1-0.3,0.2-0.4,0.3l-0.1-0.1l0,0l0,0l-0.2,0l0.1-0.1l0,0
			l0.1,0l-0.1-0.1l0-0.1l-0.1-0.1l0,0l-0.1,0l0,0l0,0l0,0l-0.1,0.1l0,0l0,0l0,0l0,0l0,0.1l0,0l-0.1,0.1v0.1l0.2,0.1l0.1,0l0,0l0,0
			l0,0l0,0l0,0.1l0,0l0,0l0,0l0,0l0,0.1l-0.1,0.1l-0.1,0l0,0l0,0l0,0v0.1v0l0,0l0,0l0,0v0l0,0l0,0l0,0l0-0.1l-0.1,0l0-0.1l0,0l0,0
			l-0.1,0l0.1,0.1l0.1,0v0l0,0l-0.1,0l0-0.1l0,0l0,0.1l-0.2,0l-0.2,0l-0.1-0.1l-0.1,0v0l-0.1,0l0,0l0,0l0,0l-0.1,0l-0.2,0.1l0,0.1
			l0.1,0l0,0l0,0l0,0l0.1,0l0,0l0,0h0l0,0l0.1,0l-0.1,0.1l-0.1,0l0,0l0,0l0,0l0.1,0.1l0,0l0,0l-0.1,0v0l-0.1-0.1l0,0l0,0l0,0l0,0
			l0,0l0-0.1h-0.1l0-0.1l-0.2,0.1l-0.2,0l-0.1,0l0,0v0l0,0l0,0h0.1l0-0.1l-0.1-0.1l-0.1,0l0,0l-0.1,0l-0.3-0.1l0,0
			c1.9-1,4.3-1.8,6.9-2.1C-252.7,188.4-253.8,188.9-254.8,189.5 M-240,190.1l-0.1-0.1l-0.1,0l-0.1,0l-0.1-0.1l-0.1,0l-0.1-0.1
			l-0.1,0l-0.1,0l-0.1,0l-0.1,0l-0.1-0.1l-0.1,0l-0.1,0.1l-0.1,0.2l-0.1,0l0,0.1l-0.2,0l-0.1,0l-0.1-0.1l-0.1,0.1l0,0l-0.2,0l0,0
			c-1-1.3-2.3-2.1-3.8-2.4c0.4,0,0.8,0,1.2,0.1C-243.1,188.2-241.3,189-240,190.1L-240,190.1z M-258.9,196.7l0.1-0.1l0,0l0.1,0
			l0.1,0.1l0.1,0.1l0.1,0l0.1,0.1h0l0,0h0l0,0h0v0l0.2,0.2l0,0.1l0,0l0.1,0l0,0l0,0h0l0,0.1l0.1,0l0,0.1l0,0l0,0l0,0l0,0l0,0l0.1,0
			l0,0.1l0,0l0,0.1h0l0,0l0,0l0,0l0.1-0.1l0.1,0.1l0,0l0,0.1l-0.1-0.1l0,0l0,0.1l0,0l0,0l0,0l0.1,0.1l0,0.3h0.1l-0.1,0.1l0,0.1
			l-0.1,0l0,0.1l0,0l0,0l-0.1,0.1l0,0.1l0,0.1l0,0l0,0.2l0.1,0l0-0.1l0,0v0.1l0,0.1l-0.1,0.1l0,0.1l0,0l0,0.1l0.1,0.1l0.1,0.1
			l0.1,0.1l0.2,0.4l0.2,0.2l0,0.1l0.1,0.1l0.2,0.1l0.2,0l0.2,0.2l0.1,0.2l0,0.2l0,0.2l0,0.1l0,0.3l0,0.1l0,0.1l-0.1,0.3l0,0.1l0,0.1
			l0,0.1l0,0.1c-1.7-1.6-2.8-3.6-2.8-5.8L-258.9,196.7z M-255.4,190.2L-255.4,190.2l0.1,0.1l0,0l0,0l-0.1,0l0,0.1l-0.1,0.1l0,0.1
			l-0.1,0l-0.1-0.1l0-0.1l0,0l0,0l0-0.1C-255.6,190.3-255.5,190.2-255.4,190.2 M-248.8,187.8c-0.9,0.2-1.8,0.6-2.5,1.2l-0.4-0.1
			l-0.6,0.1l-0.5-0.1l-0.5,0.1l-0.2,0c1.1-0.5,2.3-0.9,3.6-1.1C-249.6,187.9-249.2,187.9-248.8,187.8 M-252.4,190.5L-252.4,190.5
			L-252.4,190.5L-252.4,190.5L-252.4,190.5L-252.4,190.5L-252.4,190.5L-252.4,190.5L-252.4,190.5
			C-252.5,190.5-252.5,190.5-252.4,190.5L-252.4,190.5z M-254.5,203.3L-254.5,203.3l0.1-0.1l0.1-0.1l0-0.1h0l0-0.1l0-0.1l-0.1-0.1
			l0-0.1l0.1,0.1l0.1,0l0.1,0l0.1,0l0.1-0.1l0.1-0.1l0.1-0.1l0-0.1l0.1-0.1l0.1-0.2l0-0.2l0.1-0.2v-0.1l0,0l0,0l0-0.1l0-0.1l0-0.1
			c1,2.2,2.8,3.7,4.9,4.1c-0.4,0-0.8,0-1.2-0.1c-1.8-0.3-3.5-0.9-4.9-1.8L-254.5,203.3z M-256.5,196.9L-256.5,196.9l-0.1,0.1
			l-0.1,0.1l0,0.1l0.1,0.1l0,0.1l-0.1,0.1l0-0.1l0,0l0-0.1l0-0.1l0,0l0,0l-0.1,0l0,0l0,0l-0.1,0.1l-0.1,0l0,0.1l0,0l0,0l-0.1,0.1
			l0,0.1l0,0l-0.1,0l0,0l0,0l0,0l-0.1,0l-0.1,0l0,0l0,0l-0.1-0.1l0-0.1l0-0.1l0.1-0.3l-0.1-0.1l-0.1,0l-0.3,0l0,0l0.1-0.1l0-0.1l0,0
			l0,0h0l0,0l0,0l0-0.1l0,0l0,0l0,0l0.1-0.1l0,0l0,0l0,0l0,0l0,0l-0.2,0l-0.1,0.2l0,0l0,0l0,0l-0.1,0l-0.2,0l0-0.1l-0.1,0l0,0l0-0.1
			l-0.1-0.1l0-0.1l0-0.1l0-0.1v-0.1l0-0.1l0,0l0,0l0-0.1l0,0l0,0h0v-0.1l0.1,0l0,0l0.1,0l0,0l0-0.1l0,0l0,0l0.1,0l0.1,0.1l0,0
			l0.1,0.1l0.1,0l0,0l0,0.1l0.1,0l0.1,0.1l0.1,0l0.1,0l0.1,0l0,0l0-0.1l0,0.1l0.1,0v0l0.1,0l0.1,0.1l0.1,0l0.1,0.1l0,0.1l0,0l0,0.1
			l0,0.1l0,0l0,0.1l0,0l0,0.1l0.1,0l0-0.1l0-0.1l-0.1-0.4l0.1-0.2l0,0l0,0h0.1l0.1,0l0-0.1l0.1,0l0,0l0.1,0l0,0l0,0l0,0l0,0l0,0l0,0
			l0,0l0,0l0,0l0,0l-0.1,0l0,0l0,0l0,0l0,0l0-0.1l0.1-0.1l0-0.2l0,0l0-0.1l0,0l0,0l0.1,0l0.1,0l0,0l0,0l0.1,0v0l0,0l0,0l0-0.1
			l0.1-0.2l0.1,0l0-0.1l0,0l0.1,0l0,0l0,0l0,0l0.1,0l0.1,0l0.1,0h0.1l0.1-0.1l0.1-0.1l0.2,0l0.1,0l0.1-0.2l0-0.1l0.1,0l0-0.1
			l0.1,0.1l0,0l0.1,0l0-0.1l0.1,0h0.1c-0.4,1.1-0.7,2.4-0.7,3.8c0,0.3,0,0.5,0,0.8l0,0l0,0l0,0l-0.1,0l-0.2,0l-0.1-0.1l-0.1,0l0-0.1
			l-0.1-0.1l0,0l0,0l0,0l0,0l0,0l0-0.1l-0.1,0l-0.1,0l0-0.1l0,0l0.1-0.1l-0.2,0l0,0l0,0l-0.1,0.1l-0.1,0l-0.1,0l-0.2,0l0-0.1
			L-256.5,196.9L-256.5,196.9L-256.5,196.9L-256.5,196.9z M-244.8,195.2L-244.8,195.2L-244.8,195.2L-244.8,195.2z M-244.4,190.9
			l0.1,0.1l-0.2,0l0,0l0,0l0,0l-0.1,0l0,0l0,0l0.1,0l0.1,0l0,0.1l-0.1,0l-0.1,0l-0.1,0l-0.1,0l0,0l0,0l-0.1,0l0,0l0,0l-0.3-0.1l0,0
			l0.1,0l0.1,0l0,0l0.5,0L-244.4,190.9l0.1-0.2l0,0l0,0l0,0l-0.1,0l-0.2,0l-0.3-0.1l-0.3,0l0,0l0,0l0,0l-0.1,0l0,0l0.1,0l0,0l-0.1,0
			l0,0l0,0l0,0l-0.1,0l-0.1,0l0,0l-0.1,0l0.1,0l0.1,0l-0.1,0l-0.1,0l0,0l-0.1,0v0h-0.1l0,0l-0.1,0l0,0l0,0l0,0l0,0l-0.1,0l-0.1,0.1
			l0,0v-0.1l-0.2,0.1l0,0l0,0l0.1,0l-0.1,0l0,0l-0.1,0l0,0l-0.1,0.1l0,0l0,0l0,0l-0.1,0l0,0l0,0l0,0v0l0,0l0,0l-0.1,0l0,0l-0.1,0
			l0,0l0,0l0,0l0,0v0l-0.1,0l0,0l0,0l0,0l0,0l0,0l-0.1,0h0l0,0l0,0l0,0l0,0l0,0l0,0l-0.1,0l0,0l0,0l0,0l-0.1,0l0.1,0l0,0l-0.1,0l0,0
			l0,0l0,0l0,0l0,0l0,0h0.1l-0.1,0l0,0.1l-0.1,0l0,0l0,0l0,0l0,0l-0.1,0l0.1,0l0,0l0,0l0,0l0,0l0,0l0,0l0,0l0,0l0,0l-0.1,0l0,0l0,0
			l0,0l0,0l-0.1,0v0l0,0l0,0l0.1,0l-0.1,0l0,0l0,0l0,0l0,0l0,0l-0.1,0l-0.1,0l-0.1,0l0.1,0l0,0l-0.1,0l0,0l0,0l0,0l0,0l0,0l0,0
			l-0.1,0l0,0l0.1,0l-0.1,0l0,0l0,0l0,0l0.1,0l0,0v0l0.1,0l0.1,0l0,0l0,0l-0.1,0l0,0l0,0l0,0l-0.2,0l0,0v0l0,0l0,0l0.1,0l-0.1,0l0,0
			l0,0l0,0l0,0l0,0l0.1-0.1h0.1l0,0l0,0l-0.1,0.1h0.1l-0.1,0l0,0l0.1,0l0,0l0,0l0,0l0.1,0l0,0l0,0h0.1l0.1,0l0.1,0l0.1,0l0,0l0,0
			l0,0l0,0l0,0l0,0.1l0,0l0,0l0,0l0,0l0,0l0,0l0,0l0,0v0h0l0,0l0.1,0.1l0,0l0,0l0,0l0.1,0l0,0h0.1l0,0l0.2,0l0.1-0.1l0,0l0,0l0,0
			l0,0l0,0l-0.1,0l0.1,0l0.1,0l0,0l0,0v0l0,0l-0.1,0l-0.1,0l0.1,0l0.1,0l0.1,0l0,0l-0.1,0l0,0l-0.1,0l-0.1,0l-0.1,0l0.1,0l0-0.1l0,0
			l0,0l0-0.1l0,0l0,0l0,0v0l0,0l0,0l0,0l0.2,0l0.1-0.1l0,0l0,0l0,0l0.1,0l0,0l0,0l0,0l0.2,0l0,0l0.1,0.1l0,0l-0.1,0l0,0l-0.2,0.1
			l-0.1,0h-0.1l0,0h0l0,0l0,0l0,0l0,0h0v0l0,0l0,0l0,0l0.1,0l0,0l0,0l0,0l0,0l0.1,0l0.2,0l0.2,0l0.1,0v0l0,0l0,0l0.1,0l0,0l-0.1,0
			l-0.1,0l0,0l0,0l0,0l-0.2,0l-0.2,0l0,0l0,0l0,0l0,0l0.1,0l0,0.1l0,0l-0.1,0l-0.1,0l-0.1,0l-0.1,0.1l0,0l0,0.1l0,0l-0.4,0.1l0,0
			l0,0l-0.1,0l0,0.1l-0.1,0l0,0l0,0l0,0l-0.1,0l-0.2,0.1l0,0l0,0l0,0l0,0l-0.1-0.1l0,0l0,0l-0.1,0.1h-0.1l0,0l-0.1,0l0,0v0l0,0h0
			l0,0l0-0.1l0,0h0l0,0l0,0v0l0,0l0,0v0l-0.1,0l0,0h0l0-0.1l0-0.1l-0.2,0.1l0,0.1l0,0.1l0,0v0.1l0,0.1l0,0l0,0.1l0,0l0,0.1l0,0l0,0
			l0,0l0,0l0,0l0,0l0,0l0,0l0,0l-0.1,0l-0.1,0.1l-0.1,0l-0.1,0.1l-0.2,0.1l-0.1,0.1l0,0l0,0l-0.2,0l0,0l-0.1,0l0,0.2l-0.1,0l-0.1,0
			l-0.1,0l0,0l0,0l0,0l0,0l0,0l0,0l0,0l0.2,0.1l0,0l0.1,0l0,0l0,0.1l0,0l0.1,0v0.1l0,0.1l0,0l0,0.1l0,0l0,0.2l0,0l-0.7,0l0,0.1
			l-0.1,0l0,0l0,0l0,0l0,0l0,0l0,0.1l0,0.1l-0.1,0.3l0,0l0,0l0,0.2l0.2,0l0.1,0l0.1,0.1l0.1,0l0.1-0.1l0.2,0l0.1-0.1l0.1,0l0-0.1
			l0.1,0l0,0l0,0l0-0.1l0.1-0.2l0.2-0.1l0-0.1l0,0l0-0.1l0,0l0.1-0.1l0.1,0l0.1,0l0.1-0.1l0.1,0l0.1-0.1l0.1,0.1l0,0.1l0.1,0.1l0,0
			l0.1,0.1h0.1l0.1,0.1h0l0,0.1l0,0l0,0l0.1,0.2l0,0l0,0.1l0,0h0l0-0.1l0-0.1l0,0v-0.1l-0.1,0l0-0.1l0,0l0.1,0l0,0.1l0,0l-0.1-0.1
			l-0.2-0.1l0-0.1l0,0l-0.1,0l-0.1,0l-0.1-0.1l-0.1-0.1l-0.1-0.1l0-0.1l0-0.1l0,0v0l0.1-0.1h0v0l0,0.1l0,0l0,0l0-0.1l0,0l0,0l0,0.1
			l0,0l0,0l0.1,0.1l0.1,0l0.1,0.1h0l0.1,0l0.1,0.1l0,0l0,0.1l0,0.1h0l0.1,0.1l0.1,0.1v0l0,0l0,0h0l0,0.1l0.2,0l0.1,0l0,0l0.1,0l0,0
			l0-0.1l-0.2-0.1l0,0l0,0l0,0l-0.1-0.1v-0.1l0,0l0,0l0.1,0.1l0,0l0.1,0l0-0.1l0.1,0l-0.1,0l0.1,0l0.1,0l0.1,0l0.1,0l-0.1,0l0,0
			l0.1-0.1l0.1,0l0,0l-0.1,0l0-0.1l-0.1-0.1l0,0l0,0l0.1,0l0-0.1l0-0.2l0,0l0,0l0.1,0l0-0.1h0l0-0.1l0,0l0.1-0.1l0-0.1l0,0l0-0.1
			l0.1,0l0,0h-0.1l0,0l0,0l0.2,0l0,0l-0.1,0.1l0.1,0v0.1l0.1,0l0.2-0.1l0.1,0l0-0.1l-0.2,0l0-0.1l0,0l0,0l0,0l0,0l0,0l0,0l0,0.1l0,0
			l0,0v0l0,0l0,0l0.1,0l0.4-0.1l0,0l-0.1,0l0,0l-0.1,0l0,0l0.1,0.1l-0.1,0l-0.1,0.1h-0.1l0,0l0.1,0.1l0,0l0.1,0.1l0.2,0.1l0.1,0.1
			l0,0.1v0l0,0l-0.1,0.1l-0.1,0l-0.1,0l-0.2,0l0-0.1l0,0l-0.1-0.1l-0.2,0l-0.1,0l-0.1,0.1l-0.2,0l0,0l0,0l0.1,0l-0.1,0l0,0l0,0h0
			l-0.1,0l0,0l-0.1,0l0,0l0,0.1l0.1,0l0,0l0,0l0,0l0,0h-0.1l0,0l0,0.1l0.1,0l0,0l0,0l0,0l0,0l0,0l0.1,0l-0.1,0.1l0.1,0v0l0.1,0l0,0
			l0,0l0,0.1l0.1,0l0.1,0l0-0.1l0,0l0.2,0.1l0.1,0l0,0l0,0l0.1,0l0.1,0l0,0l0,0l0,0.1v0l0,0.1l-0.1,0.2l-0.1,0.2l0,0l0,0l0,0.1
			l-0.1,0h-0.1l0,0v0v0l0,0v0l0,0l0,0l0,0l0,0l-0.1,0l-0.1,0l0,0l-0.2,0.1l-0.2-0.1l-0.2,0l0,0l-0.2,0l0-0.1l-0.1,0l-0.1,0l-0.1,0.1
			l0,0.1l0,0.1l0,0.1l-0.1,0.1l-0.1-0.1l-0.2-0.1l-0.1-0.1l-0.1-0.1h-0.2l-0.1-0.1l0,0l0,0l0,0l0,0l0,0v0l0,0l0,0l0.1-0.1l0-0.1
			l0-0.1l0,0l0,0l0.1-0.1l0,0l-0.1,0l0,0l0-0.1l-0.1,0l-0.1,0.1l-0.1,0l-0.1,0l0,0l-0.1,0l-0.1,0.1l0,0l-0.1,0l-0.3,0.1l-0.1,0l0,0
			l-0.1,0l-0.1,0.1l-0.1,0l-0.1,0l-0.1,0l-0.1,0l0-0.1l-0.1,0l-0.1,0.2l-0.2,0.1l-0.1,0.1l0,0.1l-0.1,0.1l0,0.1l0,0.1l0,0.1l0,0.1
			l-0.1,0.1l-0.1,0.1l-0.1,0.1l-0.1,0.1l0,0.1l-0.1,0.1l-0.1,0.2l0,0l0,0.1l0,0l0.1,0.1l0,0.1l0,0.1l0,0.1v0.1l-0.1,0.2v0.1l0,0.1
			l-0.1,0l0,0l0.1,0.1l0,0l0,0v0.1l0.1,0.1l0.1,0l-0.1,0l0,0.1l0,0l0,0l0,0l0,0.1l0,0l0.1,0.1l0,0.1l0,0l0,0l0.1,0.1l0.1,0l0.2,0.2
			l0.2,0.1l0,0l0.1-0.1l0.1,0l0.2,0l0.1,0l0.2-0.1l0.1,0l0,0l0.1,0l0.1,0l0.2,0l0.1,0l0,0l0,0v0.1l0.1,0.1l0.1,0l0,0l0.1,0l0,0l0,0
			l0,0h0l0,0.1l0.1,0l0,0l0,0.1l0,0.1l0,0.1l0,0v0l0,0l0.1,0l-0.1,0l0,0.1l0,0l0.1,0.1l0.2,0.2l0.1,0.1l0,0.1l0,0.1v0l0.1,0.2l0,0.1
			l0,0l0,0.1l0,0.1v0.1l0,0.1l-0.1,0.1l-0.1,0.1l-0.1,0.3l0,0.2l0,0.1l0.1,0.2l0.2,0.4l0,0.2l0,0.1l0,0.1l0,0.2l0.1,0.1l0.1,0.1
			l0.1,0.3l0.1,0.2l0,0.1l0,0l0,0l0,0l0.1,0.1l0,0h0v0l0.1,0.1l0,0l0.2,0l0.1,0l0.2,0l0,0l0.1,0l0,0l0.2,0l0.1-0.1l0.2-0.2l0.1-0.3
			l0.1-0.1l0.1-0.2v-0.1l0,0l0,0l0-0.1l0.2-0.1l0.1-0.1l0,0l0,0v0l0-0.2l0,0l0-0.2l0,0v-0.1l0.1-0.1l0,0l0,0l0-0.1l0,0l0.1-0.1
			l0.2-0.1l0.1-0.1v0l0.1-0.1l0,0l0,0l0-0.1l0-0.1h0l0-0.2v-0.1l0-0.1l0-0.1l-0.1,0l0-0.1l0-0.1l0-0.1l-0.1-0.1l0.1-0.2l0,0l0.1-0.2
			l0.1-0.1l0.1-0.1l0,0l0,0l0.2-0.2l0.1-0.1l0.2-0.2l0.1-0.1l0.1-0.1l0.1-0.3l0,0l0.1-0.1l0-0.1l0,0l0,0l0,0l0-0.1l0-0.1l-0.1,0
			l-0.1,0l-0.1,0l-0.2,0l-0.1,0.1l-0.1,0l-0.1,0l-0.1,0l-0.1-0.1l-0.1,0l0.1,0l0-0.1l0,0l-0.1-0.1l-0.1-0.2l-0.1,0h0l0-0.1l0,0l0,0
			l-0.1-0.1l0-0.2l0-0.1l-0.1-0.1l0-0.3l0,0l0-0.1l-0.1-0.1l0-0.1l0,0l-0.1-0.1l-0.1-0.3l-0.1-0.2l-0.1-0.1l0-0.1l0-0.1l0.1,0.2
			l0.1,0.1l0,0l0-0.1l0,0l0.2,0.3l0,0.1l0,0l0.1,0.1l0.1,0.2l0,0.1l0,0.1l0.1,0.1l0.1,0.1l0,0.1l0.1,0.1l0.1,0l0,0.1l0,0.1l0,0.1
			l0,0l0,0.2l0,0.1l0.1,0l0.1-0.1h0.1l0.1-0.1l0.1,0l0,0l0.1,0l0.3-0.1l0-0.1l0.1,0l0.1,0l0.1,0l0.1-0.1l0.1,0l0-0.1l0.1,0l0-0.1
			l0,0l0,0l0,0l0.1-0.2l0-0.1l-0.1,0l-0.1-0.1l-0.2-0.1l-0.1-0.1l0-0.1l0-0.1l0,0l-0.2,0.2v0l0,0l-0.1,0l0,0h-0.1l0,0l0,0v0l0-0.1
			l0,0l0,0.1v0.1l-0.1-0.1l0,0l0-0.1l-0.1,0l0,0l-0.1,0l0-0.1l0-0.1l0,0l0.1,0l0,0l0.1,0l0,0l0-0.1l0.1,0.1l0.1,0l0.1,0.1l0,0
			l0.1,0.1l0.1,0l0,0l0.1,0l0,0l0.1,0l0.2-0.1l0.1,0l0.1,0.1l0.4,0.1l0,0l0,0l0.2,0l0,0l0,0l0,0l0.2,0l0,0.1l0,0l0,0.1l0.1,0
			l0.1,0.1h0.1l0.1,0l0,0l0,0l-0.1,0l0,0l0.1,0.1h0.1l0.1,0l0-0.1l0.1,0l0,0l0,0.2l0,0.1l0,0.1h0l0,0.1l0,0.2l0,0.1l0,0l0,0l0,0.1
			l0,0.1c-0.1,4.7-3.2,8.5-6.9,8.5c-2.5,0-4.7-1.7-5.9-4.3l0,0l0.2-0.1l0,0l0.2-0.1l0-0.1l0.1-0.1l0-0.1l0.1-0.3l0-0.2l0-0.1l0-0.2
			l0-0.2l0-0.2l0.1-0.1l0.1-0.2l0.1-0.1l0.1-0.2l0-0.2l0-0.2l0-0.1l-0.2,0l-0.3-0.2l-0.1,0l-0.2,0l-0.2,0l-0.1,0.1l0-0.1l0,0l0,0
			l0,0l0,0l0,0l-0.2-0.1l-0.1,0l0,0.1l-0.1,0l0,0.1l0-0.1l-0.2,0l0,0l0,0l0.1,0l0-0.1l0,0l0,0l-0.1,0.1l0-0.1l0.1-0.2l0-0.1l-0.1,0
			l-0.1-0.3l0,0l0,0l0,0l0,0c0-0.3,0-0.6,0-0.9c0-1.3,0.3-2.6,0.7-3.8h0.1l0,0l0.1,0l0,0l0,0l0.1-0.1l0.2,0l0.1-0.1l0,0l0,0l0,0l0,0
			l0,0l0,0h0.1l0,0l0,0l-0.1,0l0,0v-0.1l-0.1,0l0,0l-0.1,0l-0.1,0.1l0,0l-0.1,0l0,0l0.1,0l0,0l0.1,0l-0.1,0l0.2-0.1l-0.1,0l0,0l0,0
			l0,0l0,0l0,0l0,0l-0.1,0c0,0,0,0,0,0l0,0l0,0c0.3-0.6,0.6-1.1,1-1.6l0,0l0.1,0l0,0l0,0l0,0l0,0l0,0l0,0l0,0l0,0l0,0l0,0l0,0
			l-0.1,0l0,0l0,0l0,0l0,0l-0.1,0l0,0l0,0l0,0l0.1,0l0,0l0,0l-0.2,0l0,0l-0.1,0l0,0l0,0l0,0l0,0l0,0l0,0h0l0,0l0,0l0,0l0,0l0,0l0,0
			h0l0,0l0,0l0,0l0,0l0,0v0l0,0l0,0h0l0,0l0,0l0,0v0l0,0l0-0.1l0,0l0,0l0,0l0,0l0,0l-0.1,0l0,0l0,0l0,0l0,0.1l0,0l0,0l0,0l0,0l0.1,0
			l0,0l0,0l0,0l0,0l0,0l0,0h0.1l-0.1,0l0.1,0l0,0l0.2,0l0,0l0,0l0,0l0,0l0,0l0,0l0,0l0,0l0,0l0,0l0,0l0,0l0,0l0.1,0l0,0l0,0l0.1,0
			l0-0.1l0-0.1l0-0.1l0,0l0.1,0l0,0l0,0l0,0l0,0l0,0l0,0l0,0l0,0l0,0l0,0l0.1,0l0,0l-0.1,0l0.1,0l-0.1-0.1h0l0,0l0.1,0l0,0l0,0l0,0
			l0.1,0l0,0l0,0l0,0l0,0l0,0l0,0l0,0l0,0l0,0l0,0l0,0l0,0l0,0v0l0,0l0,0l0,0l0,0l0,0l0,0l0,0l0,0l0,0l0,0l0,0l0,0l0,0v0l0,0l0,0
			l0.1,0l0,0l0,0l0,0l0,0l0,0l0,0l0,0l0,0h0l0,0l0,0l0,0l0,0l0,0l0,0l0,0l0.2-0.1l0.1,0l0,0h0l0,0l0.1,0l0,0l0,0l0,0l0,0l0.1,0l0,0
			l0,0h0l0,0l-0.1,0l-0.1,0l-0.2,0.1l0,0l0.1-0.1l-0.2,0l0.1,0l0,0l0,0h0.1l0.1,0l0,0l0,0l0,0h-0.1l0,0l0,0l0,0l0.2,0.1l0,0l0,0l0,0
			l0.1,0l0-0.1l0,0l0,0l0-0.1l0,0l0,0l0,0l0-0.1l-0.1,0v0l0,0l-0.1,0l0,0l-0.1-0.1l0,0l0,0l0,0l0,0l0.1,0l0,0l0,0l-0.1,0l0.1-0.1
			l-0.1,0l0,0l0,0l0.1,0l0.1,0l0,0l0,0l0,0l0.1,0.1l0.1,0l0-0.1l-0.1,0l0,0h0l0,0l0,0l0.2,0.1l0,0l0,0h-0.1l0,0l0-0.1l-0.1,0l0.1,0
			l-0.1-0.1l0,0l0,0l0.2,0.1l0,0l0-0.1l-0.1-0.1l0.1,0l-0.1,0l0,0l0,0l0,0l-0.1-0.1l0.1,0l-0.1,0l0.1,0l0.2,0l0,0l0-0.1l-0.2,0l0,0
			l0,0l0,0l0,0l0,0l0.1,0l0,0l0,0l-0.1-0.1l-0.1,0.1l0,0l0-0.1l0,0l0,0l-0.4-0.1l-0.3,0c1-0.7,2.2-1.2,3.5-1.2c1.9,0,3.6,1,4.9,2.5
			l-0.1,0l-0.1,0l-0.1,0l-0.1,0.1l-0.1,0l-0.1-0.1l-0.1,0.1l-0.1,0l-0.1,0.1h-0.1l-0.1,0.1h-0.1l0,0.1h-0.1l-0.2,0.1l0,0l0,0
			L-244.4,190.9L-244.4,190.9z M-255.3,190.1l0.2,0l0.1,0l0,0l0,0h0l0,0l-0.1-0.1l0.1,0l0,0l0.1,0l0,0l0-0.1l0,0l0.1,0l0,0l0,0
			l0,0.1h0.1l0,0l0,0l0.1,0.1l0,0l0,0l-0.1,0l0,0.1l0.1-0.1l0.1,0v0l0.1,0.1v0l0,0l0,0.1l0.1,0l0.1,0.2l-0.1,0.1l0,0l-0.1,0.1
			l0.1,0.1v0l-0.1,0l-0.1,0.1l-0.2,0l0,0h0l0,0l0,0l0,0.1l0,0l0.1,0l0.1,0l0,0l0,0l0.1,0l0,0l0-0.1l0,0l0,0l0.1,0l0,0.1l0.1,0.1l0,0
			l0,0l0.1,0.1l0.1,0l0,0l0,0l0,0l0,0.1l0,0l0,0l0.1,0l0,0l0,0l0,0l0-0.1l-0.1-0.1l-0.1-0.1l0,0l0,0l0.1,0.1l0,0l0.1,0.1l0.1,0
			l0.1,0.1l0,0l0,0l0,0l0,0l0,0v0l0,0l0-0.1l0-0.1l-0.1,0l0-0.1l0,0l0,0l0,0l-0.1,0l0,0h0l0,0l0-0.1l0,0v-0.1h-0.1l0,0l0.1,0
			l-0.1-0.1l0,0l0,0l0,0h0l0,0l0.1,0l0,0l0,0v0.1l0,0l0,0l0,0l0,0l0,0l0.1,0.1l0-0.1l0-0.1l0.1,0l0-0.1l0,0l0,0l0,0l0,0l0.1,0l0,0
			l0,0l0,0l-0.1-0.1l-0.1,0l0-0.1l-0.1,0l0,0l0-0.1l-0.1,0l0,0l-0.1,0l0,0l0,0l0,0h-0.1l0,0l-0.1,0l0.1,0l0,0l0,0l-0.1,0l0.2,0
			l-0.2-0.1l0.1,0l0,0l0,0l-0.1-0.1l0,0l-0.1,0l0,0l-0.1,0l0.1,0l0,0l-0.1,0l-0.1,0.1l0-0.1l-0.1,0l0-0.1l0,0h-0.1l0.1,0l0,0l0-0.1
			l-0.1-0.1l0,0h0l0,0.1l0,0v0l0,0l0-0.1l-0.1,0l0.1,0l0,0l-0.1,0l0,0l-0.1-0.1l0,0c0.2-0.1,0.4-0.2,0.6-0.3l0,0l0.1,0l0,0l0.1,0
			l0,0l0.3,0l0,0l0,0l0.1,0l-0.3,0l-0.1,0.1l0.1,0l0.1,0l0,0l0,0l0.1,0l-0.1,0.1l0.1,0.1l0.1,0l-0.1-0.1l0,0l0.1,0l0,0l0,0l0,0l0,0
			l0.2-0.1l0.3,0.1l0,0l0,0l0,0l0,0.1l0.1,0l0,0l0,0l0,0l0,0l0,0l0,0l0,0l0,0l0,0l0,0l0,0l0,0l0,0l0,0l0,0l0.1,0l0,0.1l-0.1,0.1l0,0
			l0,0l0,0l0,0l0,0l0.1,0l0,0l0,0l0,0l0,0l0,0c-0.4,0.5-0.8,1.1-1.1,1.8l0,0l0,0l-0.1,0l0.1,0l0,0l0.1,0l0,0l0,0l0-0.1l0,0l0,0l0,0
			l0,0l0,0l0,0l-0.1,0l0.1,0l-0.1,0l0.1,0l0,0l0,0l-0.1,0l0.1,0l-0.1,0l0,0l0,0l0,0h0l0,0l0,0h0l-0.1,0.1l0,0l0,0l0,0l0,0h0l0,0l0,0
			v0l0,0l0,0.1l-0.1,0l0,0l0,0l0,0l0,0.1l-0.1,0l0.1,0l0,0l0-0.1l-0.2,0l0,0l0,0l0,0l0,0l0,0l0,0l0,0l0,0l0,0l-0.1,0l0.2,0l0-0.1
			l0-0.1l0,0l0,0l0,0l-0.1,0l0-0.1l0,0l-0.1,0l0,0l0,0l0,0l0-0.1l-0.1,0l-0.1,0l-0.2-0.1l-0.1,0.1l0,0.1l0.1,0l-0.1,0.1l0.1,0l0,0
			l0,0l0,0l0,0h0l0,0l0,0l-0.1,0v0l-0.1,0v0l0,0.1l-0.1,0.1l0,0.1l-0.1,0h-0.1l-0.1,0.1l0,0.1l0,0.1l-0.1,0l-0.1,0l-0.1,0l0-0.1
			l0-0.1l-0.1,0l-0.1-0.1l-0.1,0l-0.2-0.1l-0.1,0l0,0v0l-0.1-0.2l0-0.2l0,0l0,0l0,0l0,0l0,0l0.3,0l0,0l0.1,0l0.1,0l0-0.1l-0.1,0l0,0
			l0,0l-0.1,0l0,0l0,0l0,0l0.1,0l0.1,0l0.1,0.1l0,0l0,0h0l0,0l0.1,0l0.1,0l0.1-0.2l-0.2,0l-0.1-0.1l0,0l0.1,0l0.1,0.1l0.1,0l0.1-0.1
			l0,0l0,0l0,0h0.1l0,0.1l0.1,0l0,0l0.1,0l0-0.1l0,0l0.1,0.1l0.1,0l0.1-0.1l0,0l-0.1-0.1l0-0.1l0,0v0l0,0l0,0l0,0l0,0l0,0l-0.1,0
			l0.1-0.1l-0.1,0l0,0l0,0L-255.3,190.1l-0.1,0.1C-255.4,190.1-255.3,190.1-255.3,190.1L-255.3,190.1z M-255.3,189.9l0.1,0
			C-255.2,189.8-255.3,189.8-255.3,189.9L-255.3,189.9z M-255.2,204.3L-255.2,204.3L-255.2,204.3v-0.1l0,0l0,0l0.1,0l0,0l0-0.1l0,0
			l-0.1,0l0,0l0,0l-0.1-0.1l0-0.2l0,0l0.1,0.1l0.1,0l0.1,0l0,0l0-0.1l0-0.1c1,0.7,2.2,1.2,3.4,1.5
			C-252.8,204.9-254.1,204.6-255.2,204.3 M-236.3,197.9L-236.3,197.9l-0.1,0.2l-0.1,0l0,0.1h0l0,0.1l-0.1,0l0,0l-0.1,0l0,0.1l0,0.1
			l0,0l0,0.1l0,0.2l0.1,0l0.1,0l0,0.1l0,0c0,0.1-0.1,0.2-0.1,0.3l0,0l0,0l0,0l0,0l-0.2,0l-0.1-0.1l-0.1,0l0,0l-0.1,0l-0.1,0l0,0
			l0,0.1l0,0l0,0l0.1,0l0,0l0.1,0l0.2,0l0,0l0.1,0l0.1,0.1c-1.2,3-4.5,5.4-8.5,6.1c-0.4,0-0.8,0.1-1.2,0.1c3.2-0.7,5.7-4.1,5.9-8.2
			l0.1,0.2l0.1,0.1h0l0,0l0-0.1l0.1,0v0l0-0.1h0.1l0-0.1l0.1-0.2l0,0l0-0.2l0,0h0.1l0-0.1l0.1,0l0-0.1l0.2-0.1l0.1-0.1l0.1-0.1
			l0.1-0.1v-0.1l0.1,0l0,0l0,0.1l0,0v0l0,0l0,0l0.1,0l0,0l0,0l0,0l0,0v0l0,0l0,0h0.1l0,0.1l0,0v0l0,0l0,0.1l0.1,0.1l0.1,0l0,0l0,0
			l0,0l0,0l0,0l0,0.1l0,0.1l0,0.1l0,0v0l0.1,0l0.1-0.1l0-0.1l0,0.1l0.1,0l0,0.2l0,0.1l0,0l0,0.1l0,0.1l0,0l0,0l0,0.1l0,0l0,0.1v0.1
			l0,0l0.2,0.2l0,0.2l0.1,0.1l0.2,0.1l0,0l0,0l0,0l-0.1-0.1v-0.2l0-0.1l-0.1-0.1h0l-0.1-0.1l-0.1,0l0,0l-0.1-0.2h-0.1l0-0.1l0.1-0.2
			l0-0.1l0,0l0.1,0l0,0.1h0.1l0.1,0.1l0,0l0,0.1l0,0v0.1l0.1,0l0.1,0l0,0.1l0,0.1l0,0l0.1-0.1l0,0l0,0l0,0l0-0.1h0.1l0.1,0l0.1-0.1
			l0,0V197l0,0l-0.1-0.3l0,0l0,0l-0.1,0l-0.1-0.1l-0.1-0.1l0,0l-0.1-0.1l0-0.1l0-0.1l0.1-0.1l0.1-0.1l0.1,0l0,0l0,0l0,0l0.1,0l0.1,0
			v0.1l0,0.1l0,0l0-0.1l0-0.1l0.3-0.1l0-0.1l0,0v-0.1l0.1,0.1l0,0l0,0h0l0,0l0,0l0,0l0,0l0,0l0,0l0.1,0l0,0c0,0.2,0,0.5,0,0.7
			C-236.1,197-236.2,197.5-236.3,197.9L-236.3,197.9z M-261.3,192.3L-261.3,192.3l0.2-0.1l0.1,0l0.1,0l0.1,0.1l0.2,0l0.1,0l0,0.1
			l0.1,0l0,0.2l-0.1,0l0,0.2l0,0.1l0,0l0,0l0,0.1l-0.1,0l0,0l0,0l0,0l-0.1-0.1l0,0l0,0.2l0,0l0,0l0,0l0,0l0,0l0,0l0.1,0.1l-0.1,0
			l-0.2,0.3l-0.1,0l0,0.1l0,0.1l-0.1,0.1l0,0.1l0,0.1l0,0.1l0,0l0,0l0,0l0,0v0.1l0,0l0,0l0,0.1l0,0.1l0,0l0,0.2l0,0.1l0.1,0.2v0l0,0
			l0.1,0.1l0,0.1l0,0.1l0.1,0.2l0,0l0,0.1l0.1,0l0.1,0.1l0,0.1l-0.1,0v0l0.1,0.1l0,0l0,0l0,0l0.1,0l0,0.1l0,0.1h0l0.1,0.1l0,0.1l0,0
			l0,0l-0.1-0.1l0,0l0,0l-0.1-0.3l0,0l0,0l0,0l-0.1-0.2l0,0l0,0l-0.1-0.1l0,0l0-0.2l0.1,0.1h0l0.1,0l0,0.1l0.1,0.1l0.1,0.1l0,0
			l0,0.1l0.1,0.1l0,0.1l0,0l0,0v0l0.1,0l0,0l0,0l0.1,0.1l0.1,0.1l0.1,0.1l0,0.1l0,0l0,0l0,0l0,0.1l0.1,0l0.1,0.1l0,0l0.1,0l0.1,0.1
			l0.2,0c0,0,0,0,0,0c0,2.4,1.2,4.5,3,6.1v0.1l-0.1,0.5l0,0l0,0.1l0,0l0,0.2l0,0.1l0,0.1l0,0.1c-4.3-1.6-7.2-4.3-7.2-7.3
			C-263.4,195-262.6,193.5-261.3,192.3 M-234.7,202L-234.7,202L-234.7,202l0.2,0.1l0,0l0.1,0.1l0,0.1l0.1,0l0.1,0.2l0,0l0,0v0
			l0.1,0.1l0-0.1l0.1-0.1l0.1-0.1l0.1-0.1l0-0.1l0,0.1l0,0.1l0,0.1l0,0.1l0,0l0,0h0.1l0-0.1l0,0.1l0,0.1l0,0.1l0.1,0l0,0l0,0.1
			l0,0.1l0,0.1l0,0.1l0,0.1l0.1,0.1c-2.7,1.2-6.2,2-10.1,2.3C-240.2,204.8-237,203.6-234.7,202L-234.7,202z M-234,192L-234,192
			l0,0.2l0.1,0.1l0,0.1l0,0.1l0,0.2l0,0.1l0,0.2l0,0.1l0,0l0-0.1l0.1,0l0,0.1l0,0l0-0.1l0,0l-0.1-0.1l0-0.2l0.1,0l0.1,0.1l0-0.1
			l-0.1-0.4l0,0c1.4,1.3,2.1,2.8,2.1,4.4c0,0.8-0.2,1.6-0.6,2.4l0,0l0,0l-0.1,0l0,0l-0.1,0l-0.1-0.1l-0.1-0.1l0-0.1l0.1,0l0-0.1
			l-0.2-0.1l0-0.1l-0.1-0.1l-0.4-0.1l-0.2,0l-0.2-0.1l-0.1,0l0,0l-0.1,0l-0.1,0.1h0l0,0l0-0.1l0,0l0,0l0,0v-0.1l0,0h-0.1l-0.1,0
			h-0.1l-0.1,0l0,0.1l0.1,0l0,0.1l0,0l0.2,0l0,0l0,0l0,0l-0.1,0l-0.1,0v0l0,0l0,0l0,0.1l0.1,0l0-0.1v0.1l0.1,0l0,0l0.1,0l0.2,0
			l0.1,0.1l0.1,0.1l0,0l0,0l0,0l0,0l0,0l0,0l-0.1,0.1l0.1,0l0,0l0.1,0l0.1,0.1l0.2,0l0.1,0l0-0.1l0.1,0l0,0l0,0l0,0l0,0l0,0l0.2,0.1
			l0,0.1l0,0v0l0.1,0.1l0.2,0l0,0c-0.2,0.4-0.5,0.8-0.8,1.2l0-0.1l0,0l0-0.2l-0.1-0.1l-0.1,0l0,0l0-0.2l0,0l0,0l0,0v-0.1l0,0l0,0
			l-0.1,0.2l0,0l0,0.1l0,0.2l0,0.2l0,0.1l-0.1,0l-0.1-0.1l0-0.1l-0.1,0l-0.1-0.1l-0.1,0l0-0.1l-0.1,0l0.1-0.2l0,0l0-0.1l0,0l0,0l0,0
			l0,0l0,0l0-0.1l0,0l0,0l0,0.1v-0.1h0l0,0l-0.1,0l0,0l-0.1,0l0,0l-0.1,0l0,0l0,0l0,0l0,0l0,0l0,0l0,0l0.1,0l0,0.1l-0.1,0l-0.1,0
			l0,0l0,0l0,0l0,0l0,0.1h0l0,0l0,0l-0.1,0.1l0,0.1l0,0l0,0l0-0.1l-0.1,0l0,0l0,0.1l0-0.1l-0.1-0.1l-0.1,0l-0.1,0l0,0l0,0.1l0,0l0,0
			l-0.1,0l0,0.1l0,0l0,0.1l-0.1,0l0,0l0,0.1l0,0l0,0l0,0l0,0l0,0l0,0.1h0l0,0.1l-0.1-0.1l0,0l0,0l0,0.1l0,0.1l-0.1,0.1l0,0.1l-0.1,0
			l-0.1,0l0,0l0,0l-0.1,0l-0.1,0l-0.1,0.1l0,0.1l-0.1,0l0,0.1l0-0.1l0,0l0,0.1v0.1l0,0.1l0,0.1l0.1,0.2l0,0l0,0l0,0.1l0,0l0-0.1l0,0
			l0.1,0.1l0,0.1l0.1,0.2l0,0.2l0.1,0.2l0,0.2l0,0.1l0,0l0,0.1l0,0l0.1,0.1l0.2,0.1l0,0l0,0l0.1-0.1l0.1,0l0.1-0.1l0.4,0l0-0.1
			l0.2-0.1l0.2,0l0,0c-2.1,1.5-5.1,2.6-8.5,3.1c3.4-1,6-3.2,7.1-5.9l0,0l0,0l0.1,0.1l0,0l0-0.1l-0.1,0l0,0c0-0.1,0.1-0.3,0.1-0.4
			l0,0l0,0l0,0.1h0l0.1-0.1l0.1-0.1l0,0l0.1-0.1l0-0.1l0-0.1l0,0v0l0,0l0.1,0l-0.1-0.1l0,0l-0.1-0.1l0.1,0l0,0l0,0l0,0l0,0l0.1,0
			l0-0.1h0.1l0,0l-0.1-0.1l0,0v0l0,0v-0.1l0,0l0,0l0,0v0l0,0.1c0.1-0.4,0.1-0.7,0.1-1.1c0-0.3,0-0.6-0.1-0.8v0l0.1,0l0.1-0.1l0,0
			l0-0.1l0,0l0,0l0,0l0.1-0.2l0,0l0-0.1v0l0,0v0v0l0,0l0.1,0l-0.1,0l-0.1,0l0.2-0.1l-0.1-0.1l-0.1-0.1l0,0l-0.1-0.1l-0.1-0.1
			l-0.1-0.1l0-0.2l0-0.2v-0.1l0.1,0.1l0.1,0l0,0.1l0,0.2l0.2,0l0.1,0l0.1-0.1l0-0.2l0-0.1l0-0.2l-0.1-0.1l0-0.2l0.2-0.1l0.1-0.1
			l0.1-0.1l0.1-0.2l0-0.1l0.1-0.1l0,0l0.1,0l0.1,0l0.1,0.1l0.1,0.1l0.1-0.1l-0.1-0.2l-0.1-0.1l-0.1-0.1l-0.1-0.1l-0.1-0.2l-0.1-0.1
			l-0.2-0.1l0-0.1l-0.1,0l-0.1-0.1l-0.1,0l-0.1,0l-0.1-0.1l-0.1,0l0-0.2l0.1,0l0.1,0l0.1,0l0.1,0l0.1,0l0.1,0.1l0.1-0.1h0.1l0.1-0.1
			l0.1,0.1l0.1,0l0.1,0l0.1,0.1l0,0.1l0.1,0.2l0.1-0.1L-234,192L-234,192L-234,192C-234,192-234,192-234,192 M-233.3,190
			c-3.8-1.7-8.9-2.6-14.2-2.6c-5.4,0-10.4,0.9-14.2,2.6c-3.9,1.7-6,4.1-6,6.6c0,2.5,2.1,4.9,6,6.6c3.8,1.7,8.9,2.6,14.2,2.6
			c5.4,0,10.4-0.9,14.2-2.6c3.9-1.7,6-4.1,6-6.6C-227.3,194.1-229.4,191.7-233.3,190"/>
		<polygon class="st0" points="-223.8,202.3 -223.8,202.3 -223.8,202.3 		"/>
		<polygon class="st0" points="-246.2,194.1 -246.1,194.1 -246.2,194.1 		"/>
		<polygon class="st0" points="-246.1,194.1 -246.1,194.2 -246.1,194.2 -246.1,194.3 -246,194.3 -246,194.3 -246,194.4 
			-245.9,194.3 -245.9,194.4 -245.9,194.2 -245.9,194.2 -245.9,194.2 -245.9,194.2 -246,194.1 		"/>
		<polygon class="st0" points="-245.7,194.2 -245.7,194.2 -245.7,194.2 		"/>
		<polygon class="st0" points="-245.4,194.4 -245.4,194.4 -245.4,194.4 -245.4,194.4 		"/>
		<polygon class="st0" points="-245.8,193.8 -245.7,193.8 -245.7,193.8 		"/>
		<polygon class="st0" points="-245.9,194 -245.8,194.1 -245.8,194.2 -245.7,194.2 -245.7,194.1 -245.8,194.1 -245.9,194 		"/>
		<polygon class="st0" points="-247.4,193.8 -247.5,193.8 -247.4,193.9 -247.4,194 -247.4,194 -247.4,194 -247.3,194 -247.3,194 
			-247.3,193.8 -247.3,193.7 -247.4,193.7 		"/>
		<polygon class="st0" points="-246.9,194.2 -246.9,194.1 -247,194.1 -247,194.2 -247,194.2 -246.8,194.3 -246.8,194.3 
			-246.7,194.3 -246.7,194.3 -246.7,194.2 -246.7,194.1 		"/>
		<polygon class="st0" points="-232.7,199 -232.7,198.9 -232.7,198.9 		"/>
		<polygon class="st0" points="-235.7,197.8 -235.7,197.9 -235.6,197.8 		"/>
		<polygon class="st0" points="-235.6,197.8 -235.5,197.8 -235.5,197.8 -235.5,197.7 		"/>
		<polygon class="st0" points="-235.5,197.7 -235.5,197.7 -235.4,197.7 		"/>
		<polygon class="st0" points="-235.1,197.4 -235.1,197.4 -235.2,197.5 -235.2,197.5 -235.2,197.5 -235.2,197.5 -235.3,197.5 
			-235.3,197.5 -235.3,197.5 -235.4,197.5 -235.4,197.5 -235.5,197.6 -235.5,197.7 -235.4,197.7 -235.4,197.6 -235.4,197.6 
			-235.4,197.6 -235.3,197.6 -235.3,197.6 -235.3,197.6 -235.2,197.6 -235.2,197.7 -235.2,197.7 -235.1,197.8 -235.1,197.7 
			-235.1,197.8 -235.1,197.7 -235.1,197.7 -235.1,197.7 -235,197.6 -235,197.7 -235,197.6 -235,197.5 -235,197.5 -235,197.5 
			-235,197.4 -235.1,197.4 		"/>
		<polygon class="st0" points="-235.3,197.4 -235.2,197.4 -235.2,197.4 -235.2,197.3 -235.2,197.3 		"/>
		<polygon class="st0" points="-235.3,197.4 -235.3,197.4 -235.2,197.3 -235.2,197.2 		"/>
		<polygon class="st0" points="-235.1,197.3 -235.1,197.4 -235.1,197.3 		"/>
		<polygon class="st0" points="-235.2,197.3 -235.2,197.2 -235.2,197.3 -235.1,197.3 -235.1,197.3 -235.1,197.3 -235.1,197.2 
			-235.2,197.2 		"/>
		<polygon class="st0" points="-235.4,197.3 -235.4,197.3 -235.4,197.3 -235.4,197.4 -235.3,197.4 -235.3,197.4 -235.3,197.4 
			-235.3,197.3 -235.3,197.3 -235.3,197.2 		"/>
		<polygon class="st0" points="-235.5,197.3 -235.3,197.2 -235.3,197.2 -235.4,197.2 -235.5,197.1 		"/>
		<polygon class="st0" points="-235.1,197.2 -235.1,197.2 -235.1,197.2 -235.1,197.1 -235.1,197.1 -235.2,197.1 		"/>
		<polygon class="st0" points="-235.3,197.1 -235.3,197.1 -235.2,197.2 -235.2,197.1 -235.3,197.1 		"/>
		<polygon class="st0" points="-235.5,197.1 -235.5,197.1 -235.4,197.1 		"/>
		<polygon class="st0" points="-235.5,197 -235.4,197 -235.4,197 -235.5,197 		"/>
		<polygon class="st0" points="-235.5,196.8 -235.5,196.9 -235.5,196.8 		"/>
		<polygon class="st0" points="-235.6,196.4 -235.6,196.7 -235.7,196.7 -235.7,196.8 -235.6,196.9 -235.6,196.8 -235.6,196.9 
			-235.6,196.9 -235.6,196.9 -235.5,197 -235.5,196.9 -235.5,196.9 -235.4,197 -235.4,196.9 -235.4,196.9 -235.3,197 -235.2,197 
			-235.3,197.1 -235.2,197.1 -235.2,197 -235.3,197 -235.3,197 -235.3,197 -235.3,196.9 -235.3,196.9 -235.3,197 -235.4,196.9 
			-235.4,196.9 -235.4,196.9 -235.5,196.9 -235.5,196.9 -235.5,196.8 -235.5,196.7 -235.4,196.7 -235.4,196.6 -235.4,196.6 
			-235.4,196.5 -235.4,196.4 -235.5,196.5 -235.5,196.5 -235.6,196.4 		"/>
		<polygon class="st0" points="-235.6,197 -235.6,197 -235.5,197.1 -235.5,197.1 -235.5,197 -235.6,197 		"/>
		<polygon class="st0" points="-247.4,193.5 -247.4,193.5 -247.4,193.6 -247.4,193.7 -247.4,193.7 -247.3,193.6 -247.4,193.5 		"/>
		<polygon class="st0" points="-238,197.2 -237.9,197.2 -237.9,197.1 		"/>
		<polygon class="st0" points="-239.9,197.4 -239.9,197.4 -239.9,197.4 -239.9,197.5 -239.9,197.5 -239.9,197.7 -239.9,197.7 
			-239.8,197.8 -239.7,197.7 -239.7,197.6 -239.8,197.4 -239.9,197.4 -239.9,197.4 		"/>
		<polygon class="st0" points="-236.8,196.3 -236.9,196.4 -236.8,196.4 -236.8,196.5 -236.7,196.4 -236.6,196.3 -236.6,196.3 
			-236.7,196.3 		"/>
		<polygon class="st0" points="-235.6,195.7 -235.7,195.9 -235.6,196 -235.6,196.1 -235.5,195.8 -235.5,195.7 -235.5,195.7 		"/>
		<polygon class="st0" points="-236.3,196 -236.3,196 -236.3,196 		"/>
		<polygon class="st0" points="-234,193.2 -234,193.3 -234,193.4 -234.1,193.4 -234.1,193.5 -234.1,193.5 -234.2,193.5 
			-234.2,193.5 -234.2,193.6 -234.2,193.6 -234.2,193.7 -234.2,193.8 -234.1,193.7 -234.2,193.7 -234.2,193.6 -234.1,193.6 
			-234.1,193.6 -234,193.6 -233.9,193.7 -233.8,193.6 -233.6,193.5 -233.6,193.5 -233.6,193.5 -233.7,193.4 -233.6,193.4 
			-233.7,193.4 -233.7,193.4 -233.8,193.4 -234,193.2 		"/>
		<polygon class="st0" points="-234.7,194.8 -234.7,194.8 -234.7,194.8 		"/>
		<polygon class="st0" points="-235.3,194.8 -235.3,194.8 -235.3,194.9 -235.3,194.8 -235.3,194.9 -235.2,194.9 -235.2,194.8 
			-235.2,194.9 -235.2,194.9 -235.2,195 -235.2,195 -235.2,195.1 -235.2,195 -235.2,195 -235.2,195.1 -235.1,195 -235.1,194.9 
			-235.1,194.8 -235.1,194.8 -235.1,194.8 -235.1,194.8 -235.2,194.7 		"/>
		<polygon class="st0" points="-234.1,194.6 -234.1,194.6 -234.1,194.6 		"/>
		<polygon class="st0" points="-234.9,194.7 -235,194.7 -235,194.8 -235,194.8 -235,194.9 -234.9,194.9 -234.9,194.8 -234.8,194.8 
			-234.8,194.7 -234.8,194.7 -234.8,194.7 		"/>
		<polygon class="st0" points="-234.1,193.8 -234.1,193.8 -234.1,193.8 -234.1,193.8 -234.1,193.8 -234.1,193.8 -234.1,193.8 
			-234.1,193.8 -234.2,193.8 -234.2,193.9 -234.2,193.9 -234.2,194 -234.2,194 -234.2,194 -234.2,194.1 -234.3,194.2 -234.4,194.3 
			-234.5,194.4 -234.5,194.3 -234.5,194.3 -234.5,194.3 -234.5,194.3 -234.6,194.4 -234.6,194.4 -234.6,194.5 -234.6,194.5 
			-234.7,194.5 -234.7,194.5 -235,194.5 -235.1,194.7 -235.2,194.7 -235.2,194.7 -235,194.7 -235,194.7 -234.8,194.7 -234.8,194.6 
			-234.7,194.6 -234.7,194.7 -234.6,194.8 -234.6,194.7 -234.5,194.7 -234.5,194.7 -234.6,194.6 -234.5,194.6 -234.5,194.6 
			-234.5,194.6 -234.5,194.6 -234.4,194.6 -234.3,194.6 -234.3,194.6 -234.3,194.6 -234.3,194.6 -234.3,194.6 -234.2,194.6 
			-234.2,194.5 -234.2,194.5 -234.2,194.6 -234.2,194.6 -234.1,194.5 -234.1,194.4 -234.1,194.3 -234.1,194.2 -234,194.2 -234,194 
			-234,193.8 		"/>
		<polygon class="st0" points="-234.1,193.2 -234.1,193.2 -234.1,193.2 		"/>
		<polygon class="st0" points="-237.4,198.2 -237.4,198.2 -237.4,198.2 		"/>
		<polygon class="st0" points="-237.3,198.6 -237.3,198.6 -237.3,198.6 -237.3,198.5 -237.4,198.5 -237.4,198.4 -237.4,198.4 
			-237.4,198.4 -237.4,198.4 -237.4,198.3 -237.4,198.3 -237.5,198.3 -237.4,198.3 -237.4,198.3 -237.5,198.3 -237.5,198.2 
			-237.5,198.2 -237.6,198.2 -237.6,198.2 -237.7,198.1 -237.7,198.2 -237.7,198.1 -237.8,198 -237.9,197.9 -238,197.8 
			-238.2,197.8 -238.2,197.8 -238.3,197.8 -238.2,197.9 -238.1,198 -238.1,198 -238,198.1 -238,198.1 -237.9,198.2 -237.9,198.2 
			-237.8,198.3 -237.8,198.4 -237.7,198.4 -237.7,198.6 -237.5,198.7 -237.5,198.8 -237.4,198.9 -237.3,199 -237.3,198.9 
			-237.3,198.9 -237.2,199 -237.2,198.9 -237.2,199 -237.1,198.7 -237.2,198.6 		"/>
		<polygon class="st0" points="-234.9,198.4 -234.9,198.5 -234.8,198.5 -234.9,198.4 		"/>
		<polygon class="st0" points="-234.9,198.2 -234.9,198.2 -234.8,198.4 -234.8,198.5 -234.8,198.4 -234.8,198.3 -234.8,198.3 
			-234.7,198.3 -234.8,198.3 -234.7,198.3 -234.7,198.2 -234.8,198.2 -234.8,198.3 -234.9,198.3 -234.8,198.2 -234.8,198.1 		"/>
		<polygon class="st0" points="-234.8,198.1 -234.8,198.2 -234.8,198.1 -234.8,198.1 		"/>
		<polygon class="st0" points="-235.3,198.5 -235.3,198.5 -235.3,198.5 -235.3,198.5 		"/>
		<polygon class="st0" points="-235.4,198.5 -235.4,198.5 -235.3,198.5 -235.3,198.5 		"/>
		<polygon class="st0" points="-235.3,198.8 -235.3,198.8 -235.3,198.8 		"/>
		<polygon class="st0" points="-235.4,198.9 -235.4,198.9 -235.4,198.9 -235.3,198.9 -235.3,198.9 -235.3,198.9 -235.3,198.8 		"/>
		<polygon class="st0" points="-235.5,198.9 -235.4,198.9 -235.5,198.9 		"/>
		<polygon class="st0" points="-235.3,198.3 -235.4,198.3 -235.5,198.2 -235.6,198.2 -235.6,198.3 -235.6,198.3 -235.7,198.3 
			-235.7,198.4 -235.7,198.4 -235.7,198.5 -235.7,198.6 -235.8,198.6 -235.8,198.7 -235.7,198.7 -235.7,198.8 -235.7,198.9 
			-235.7,198.9 -235.6,198.9 -235.6,198.7 -235.6,198.7 -235.6,198.6 -235.5,198.6 -235.6,198.7 -235.5,198.7 -235.5,198.8 
			-235.5,198.9 -235.5,198.9 -235.4,198.8 -235.4,198.8 -235.4,198.8 -235.4,198.8 -235.4,198.7 -235.4,198.7 -235.5,198.5 
			-235.5,198.6 -235.4,198.5 -235.4,198.5 -235.3,198.5 -235.3,198.4 -235.3,198.4 -235.4,198.4 -235.4,198.5 -235.4,198.5 
			-235.5,198.5 -235.5,198.5 -235.6,198.5 -235.6,198.4 -235.6,198.3 -235.6,198.3 -235.5,198.3 -235.2,198.3 -235.1,198.2 
			-235.1,198.2 		"/>
		<polygon class="st0" points="-234.5,198.5 -234.5,198.5 -234.5,198.5 -234.5,198.5 		"/>
		<polygon class="st0" points="-234.6,198.4 -234.5,198.4 -234.5,198.4 -234.5,198.4 		"/>
		<polygon class="st0" points="-234,198.5 -233.9,198.6 -233.9,198.5 -234,198.5 		"/>
		<polygon class="st0" points="-234,198.4 -234,198.5 -233.9,198.5 -234,198.4 		"/>
		<polygon class="st0" points="-237.5,198.2 -237.5,198.2 -237.6,198.2 		"/>
		<polygon class="st0" points="-237.6,198.2 -237.6,198.2 -237.6,198.2 		"/>
		<polygon class="st0" points="-235.4,198.9 -235.4,198.9 -235.4,198.9 -235.4,198.8 		"/>
		<polygon class="st0" points="-249.2,191.8 -249.3,191.7 -249.3,191.8 -249.4,191.8 -249.3,191.8 -249.4,191.9 -249.5,191.9 
			-249.5,191.9 -249.5,191.9 -249.5,191.9 -249.5,191.9 -249.5,192 -249.5,192 -249.4,192 -249.5,192.1 -249.4,192.1 -249.4,192.1 
			-249.5,192.1 -249.5,192.2 -249.5,192.2 -249.5,192.2 -249.5,192.2 -249.5,192.2 -249.5,192.2 -249.5,192.2 -249.5,192.3 
			-249.4,192.3 -249.2,192.2 -249.1,192.2 -249.1,192.1 -249.1,192 -249.1,191.9 -249.1,191.9 -249,191.9 -249.1,191.8 -249,191.9 
			-249,191.8 -249.1,191.8 -249.1,191.8 -249.1,191.7 -249.2,191.8 -249.2,191.7 -249.2,191.7 		"/>
		<polygon class="st0" points="-248.5,192.1 -248.4,192 -248.5,192 -248.4,192 -248.4,191.9 -248.5,191.8 -248.6,191.8 
			-248.6,191.7 -248.7,191.6 -248.8,191.6 -248.7,191.6 -248.8,191.6 -248.7,191.6 -248.7,191.5 -248.6,191.4 -248.7,191.4 
			-248.9,191.4 -248.9,191.4 -248.9,191.4 -248.9,191.3 -248.8,191.3 -248.8,191.2 -248.8,191.2 -249,191.2 -249,191.3 -249,191.3 
			-249,191.3 -249,191.3 -249.1,191.4 -249,191.4 -249.1,191.4 -249.1,191.4 -249,191.4 -249.1,191.5 -249.1,191.5 -249.1,191.6 
			-249,191.5 -249.1,191.7 -249,191.7 -249,191.6 -249,191.6 -249,191.7 -249,191.6 -248.9,191.6 -249,191.7 -248.9,191.7 
			-249,191.8 -249,191.8 -249,191.8 -249,191.8 -248.9,191.8 -248.9,191.8 -248.8,191.8 -248.8,191.8 -248.8,191.9 -248.8,191.9 
			-248.8,191.9 -248.8,191.9 -248.8,191.9 -248.7,191.9 -248.8,191.9 -248.8,192 -248.8,192 -248.8,192 -248.9,192 -248.9,192.1 
			-248.9,192.1 -248.9,192.1 -248.9,192.1 -249,192.2 -249,192.2 -248.9,192.2 -248.9,192.2 -248.9,192.2 -248.8,192.3 
			-248.7,192.2 -248.8,192.3 -248.9,192.3 -249,192.4 -249,192.4 -248.9,192.4 -248.8,192.4 -248.8,192.4 -248.7,192.4 
			-248.7,192.4 -248.6,192.4 -248.6,192.3 -248.5,192.4 -248.3,192.3 -248.3,192.3 -248.4,192.3 -248.4,192.3 -248.3,192.2 
			-248.3,192.1 -248.3,192.1 		"/>
		<polygon class="st0" points="-249.2,191.3 -249.2,191.4 -249.1,191.3 -249.1,191.3 -249.1,191.3 -249.1,191.3 		"/>
		<polygon class="st0" points="-249.9,190.9 -249.9,190.9 -250,190.9 -250,190.9 -250,190.9 -250,190.9 -250,190.9 -250.1,190.9 
			-250.1,190.9 -250.1,190.9 -250.1,191 -250.1,190.9 -250.2,191 -250.2,191 -250.2,190.9 -250.2,190.9 -250.2,190.9 -250.2,190.9 
			-250.2,190.9 -250.2,190.9 -250.3,190.9 -250.3,190.9 -250.2,190.9 -250.3,190.9 -250.2,190.9 -250.2,190.9 -250.3,190.9 
			-250.3,190.9 -250.3,190.9 -250.3,190.9 -250.3,190.9 -250.3,190.9 -250.3,190.9 -250.3,191 -250.3,190.9 -250.3,191 
			-250.2,190.9 -250.2,191 -250.2,191 -250.2,191 -250.2,191 -250.3,191 -250.3,191 -250.2,191 -250.2,191.1 -250.2,191 
			-250.2,191.1 -250.2,191.1 -250.2,191.1 -250.3,191.1 -250.3,191.1 -250.2,191.1 -250.1,191.1 -250,191.1 -250,191.1 
			-249.9,191.1 -249.9,191.1 -249.9,191.1 -249.8,191 -249.8,191 -249.8,191 -249.8,191 -249.8,191 -249.8,191 -249.8,190.9 
			-249.8,190.9 -249.8,190.9 -249.9,190.9 -249.8,190.9 -249.9,190.9 -249.9,190.9 		"/>
	</g>
	<g>
		<path class="st0" d="M-251.4,237.2l2.8-7.1h0.8l2.7,7.1h-0.7l-0.8-2.2h-3.2l-0.8,2.2H-251.4z M-249.7,234.4h2.8l-1.4-3.7
			L-249.7,234.4z"/>
		<path class="st0" d="M-244.9,237.2v-7.1h4.5v0.6h-3.9v2.5h3.5v0.6h-3.5v3.4H-244.9z"/>
		<path class="st0" d="M-240,237.2v-7.1h4.5v0.6h-3.9v2.5h3.5v0.6h-3.5v3.4H-240z"/>
		<path class="st0" d="M-234.9,237.2v-7.1h0.7v7.1H-234.9z"/>
		<path class="st0" d="M-232.3,231.1L-232.3,231.1l0,6.2h-0.7v-7.1h0.8l4.1,6.2h0v-6.2h0.7v7.1h-0.8L-232.3,231.1z"/>
		<path class="st0" d="M-226.2,237.2v-7.1h0.7v7.1H-226.2z"/>
		<path class="st0" d="M-225,230.2h5.1v0.6h-2.2v6.5h-0.7v-6.5h-2.2V230.2z"/>
		<path class="st0" d="M-217.3,233.6l2.1-3.4h0.8l-2.6,4v3.1h-0.7v-3l-2.5-4h0.8L-217.3,233.6z"/>
	</g>
	<rect x="-280.1" y="223.8" class="st0" width="94.3" height="0.9"/>
</g>
</svg>
