<?xml version="1.0" encoding="utf-8"?>
<!-- Generator: Adobe Illustrator 19.0.0, SVG Export Plug-In . SVG Version: 6.00 Build 0)  -->
<svg version="1.1" id="Capa_1" xmlns="http://www.w3.org/2000/svg" xmlns:xlink="http://www.w3.org/1999/xlink" x="0px" y="0px"
	 viewBox="-256 185.2 55 55" style="enable-background:new -256 185.2 55 55;" xml:space="preserve">
<style type="text/css">
	.st0{fill:#414042;}
</style>
<path class="st0" d="M-228.5,185.2L-228.5,185.2c15.1,0,27.5,12.4,27.5,27.5v0c0,15.1-12.4,27.5-27.5,27.5h0
	c-15.1,0-27.5-12.4-27.5-27.5v0C-256,197.6-243.6,185.2-228.5,185.2z"/>
</svg>
