<?xml version="1.0" encoding="utf-8"?>
<!-- Generator: Adobe Illustrator 19.0.0, SVG Export Plug-In . SVG Version: 6.00 Build 0)  -->
<svg version="1.1" id="Layer_1" xmlns="http://www.w3.org/2000/svg" xmlns:xlink="http://www.w3.org/1999/xlink" x="0px" y="0px"
	 viewBox="-256 185.2 55 55" style="enable-background:new -256 185.2 55 55;" xml:space="preserve">
<style type="text/css">
	.st0{fill:#414042;}
</style>
<g>
	<path class="st0" d="M-204.1,226.2c-0.1-0.4-1-1-2.6-1.8c-0.4-0.3-1.1-0.6-1.9-1c-0.8-0.4-1.5-0.8-2.2-1.2
		c-0.7-0.4-1.3-0.7-1.9-1.1c-0.1-0.1-0.4-0.3-0.9-0.6c-0.5-0.3-0.9-0.6-1.2-0.7c-0.3-0.2-0.7-0.2-1-0.2c-0.5,0-1,0.3-1.7,1
		c-0.7,0.7-1.3,1.4-1.9,2.2c-0.6,0.8-1.2,1.5-1.8,2.2c-0.6,0.7-1.2,1-1.6,1c-0.2,0-0.5-0.1-0.8-0.2c-0.3-0.1-0.6-0.2-0.7-0.3
		c-0.2-0.1-0.4-0.2-0.8-0.5c-0.4-0.2-0.6-0.4-0.7-0.4c-3.2-1.8-5.9-3.8-8.2-6.1c-2.3-2.3-4.3-5-6.1-8.2c0,0-0.2-0.3-0.4-0.7
		c-0.2-0.4-0.4-0.7-0.5-0.8c-0.1-0.2-0.2-0.4-0.3-0.7c-0.1-0.3-0.2-0.6-0.2-0.8c0-0.4,0.3-1,1-1.6c0.7-0.6,1.4-1.3,2.2-1.8
		c0.8-0.6,1.5-1.2,2.2-1.9c0.7-0.7,1-1.3,1-1.7c0-0.3-0.1-0.7-0.2-1c-0.2-0.3-0.4-0.7-0.7-1.2c-0.3-0.5-0.5-0.8-0.6-0.9
		c-0.3-0.6-0.7-1.2-1.1-1.9c-0.4-0.7-0.8-1.4-1.2-2.2c-0.4-0.8-0.8-1.4-1-1.9c-0.8-1.6-1.4-2.5-1.8-2.6c-0.2-0.1-0.4-0.1-0.7-0.1
		c-0.6,0-1.4,0.1-2.5,0.3c-1,0.2-1.8,0.5-2.4,0.7c-1.2,0.5-2.4,1.9-3.7,4.2c-1.2,2.2-1.8,4.3-1.8,6.5c0,0.6,0,1.2,0.1,1.8
		c0.1,0.6,0.2,1.3,0.4,2c0.2,0.7,0.4,1.3,0.5,1.7c0.1,0.4,0.4,1,0.7,1.9c0.3,0.9,0.6,1.5,0.6,1.7c0.8,2.3,1.8,4.3,2.9,6.1
		c1.8,3,4.3,6,7.5,9.2c3.2,3.2,6.2,5.7,9.2,7.5c1.8,1.1,3.8,2.1,6.1,2.9c0.2,0.1,0.8,0.3,1.7,0.6c0.9,0.3,1.6,0.6,1.9,0.7
		c0.4,0.1,0.9,0.3,1.7,0.5c0.7,0.2,1.4,0.4,2,0.4c0.6,0.1,1.2,0.1,1.8,0.1c2.1,0,4.3-0.6,6.5-1.8c2.3-1.3,3.8-2.5,4.2-3.7
		c0.3-0.6,0.5-1.4,0.7-2.4c0.2-1,0.3-1.8,0.3-2.5C-204,226.6-204.1,226.3-204.1,226.2z"/>
</g>
</svg>
