<?xml version="1.0" encoding="utf-8"?>
<!-- Generator: Adobe Illustrator 19.0.0, SVG Export Plug-In . SVG Version: 6.00 Build 0)  -->
<svg version="1.1" id="Capa_1" xmlns="http://www.w3.org/2000/svg" xmlns:xlink="http://www.w3.org/1999/xlink" x="0px" y="0px"
	 viewBox="-256 185.2 55 55" style="enable-background:new -256 185.2 55 55;" xml:space="preserve">
<style type="text/css">
	.st0{fill:#414042;}
</style>
<path class="st0" d="M-209.4,226.6c2.5-3.3,3.8-6.8,4-10.5c0.1-2.4,0.1-4.9,0.1-7.3V198c0-2.1-1.3-3.5-3.4-3.8l-0.9-0.1
	c-1.2-0.1-2.4-0.3-3.5-0.5c-4.1-0.9-8-2.7-12.3-5.8c-0.7-0.5-1.4-1-2.6-1c-1.1,0-1.9,0.5-2.5,1c-5.8,4-11.1,6-16.5,6.4
	c-1.4,0.1-3.8,0.7-3.8,4l0,5.4c0,3.6,0,7.3,0,11c0,1.5,0.2,3,0.6,4.7c0.8,3.6,2.7,7,5.9,10.2c3.9,3.9,8.7,7,15,9.3
	c0.4,0.1,0.8,0.2,1.3,0.2l0,0c0.6,0,1.2-0.1,1.7-0.4l1.6-0.7c1.3-0.6,2.6-1.1,4-1.8C-216,233.5-212.2,230.4-209.4,226.6z
	 M-222.6,234.2c-1.4,0.7-2.8,1.3-4.2,1.9c-0.4,0.2-0.8,0.3-1.2,0.5v-23.2h-20.1c0-3.8,0-7.6,0-11.3l0-4.8c6.7-0.7,13.2-3.2,20.1-7.9
	v24h20.1c0,1,0,2-0.1,3c-0.1,3-1.2,5.8-3.4,8.6C-214.1,228.7-217.8,231.7-222.6,234.2z"/>
</svg>
