<?xml version="1.0" encoding="utf-8"?>
<!-- Generator: Adobe Illustrator 19.0.0, SVG Export Plug-In . SVG Version: 6.00 Build 0)  -->
<svg version="1.1" id="Layer_1" xmlns="http://www.w3.org/2000/svg" xmlns:xlink="http://www.w3.org/1999/xlink" x="0px" y="0px"
	 viewBox="-27 413.2 55 55" style="enable-background:new -27 413.2 55 55;" xml:space="preserve">
<style type="text/css">
	.st0{fill:#414042;}
</style>
<g>
	<g>
		<path class="st0" d="M0.5,413.2c-15.2,0-27.5,12.3-27.5,27.5c0,15.2,12.3,27.5,27.5,27.5c15.2,0,27.5-12.3,27.5-27.5
			C28,425.5,15.7,413.2,0.5,413.2z M15.7,442.9H2.7v12.9c0,1.2-1,2.2-2.2,2.2s-2.2-1-2.2-2.2v-12.9h-12.9c-1.2,0-2.2-1-2.2-2.2
			s1-2.2,2.2-2.2h12.9v-12.9c0-1.2,1-2.2,2.2-2.2s2.2,1,2.2,2.2v12.9h12.9c1.2,0,2.2,1,2.2,2.2S16.9,442.9,15.7,442.9z"/>
	</g>
</g>
</svg>
